%!PS-Adobe-2.0 
%%Creator: MATLAB, The Mathworks, Inc.
%%Title: KSsuzuki.ps
%%CreationDate: 01/10/2002  23:13:02
%%DocumentNeededFonts: Helvetica-Bold
%%+ Helvetica
%%DocumentProcessColors: Cyan Magenta Yellow Black
%%Extensions: CMYK
%%Pages: (atend)
%%BoundingBox: (atend)
%%EndComments

%%BeginProlog
% MathWorks dictionary
/MathWorks 160 dict begin
% definition operators
/bdef {bind def} bind def
/ldef {load def} bind def
/xdef {exch def} bdef
/xstore {exch store} bdef
% operator abbreviations
/c  /clip ldef
/cc /concat ldef
/cp /closepath ldef
/gr /grestore ldef
/gs /gsave ldef
/mt /moveto ldef
/np /newpath ldef
/cm /currentmatrix ldef
/sm /setmatrix ldef
/rm /rmoveto ldef
/rl /rlineto ldef
/s /show ldef
/sc {setcmykcolor} bdef
/sr /setrgbcolor ldef
/sg /setgray ldef
/w /setlinewidth ldef
/j /setlinejoin ldef
/cap /setlinecap ldef
/rc {rectclip} bdef
/rf {rectfill} bdef
% page state control
/pgsv () def
/bpage {/pgsv save def} bdef
/epage {pgsv restore} bdef
/bplot /gsave ldef
/eplot {stroke grestore} bdef
% orientation switch
/portraitMode 0 def /landscapeMode 1 def /rotateMode 2 def
% coordinate system mappings
/dpi2point 0 def
% font control
/FontSize 0 def
/FMS {/FontSize xstore findfont [FontSize 0 0 FontSize neg 0 0]
  makefont setfont} bdef
/reencode {exch dup where {pop load} {pop StandardEncoding} ifelse
  exch dup 3 1 roll findfont dup length dict begin
  { 1 index /FID ne {def}{pop pop} ifelse } forall
  /Encoding exch def currentdict end definefont pop} bdef
/isroman {findfont /CharStrings get /Agrave known} bdef
/FMSR {3 1 roll 1 index dup isroman {reencode} {pop pop} ifelse
  exch FMS} bdef
/csm {1 dpi2point div -1 dpi2point div scale neg translate
 dup landscapeMode eq {pop -90 rotate}
  {rotateMode eq {90 rotate} if} ifelse} bdef
% line types: solid, dotted, dashed, dotdash
/SO { [] 0 setdash } bdef
/DO { [.5 dpi2point mul 4 dpi2point mul] 0 setdash } bdef
/DA { [6 dpi2point mul] 0 setdash } bdef
/DD { [.5 dpi2point mul 4 dpi2point mul 6 dpi2point mul 4
  dpi2point mul] 0 setdash } bdef
% macros for lines and objects
/L {lineto stroke} bdef
/MP {3 1 roll moveto 1 sub {rlineto} repeat} bdef
/AP {{rlineto} repeat} bdef
/PDlw -1 def
/W {/PDlw currentlinewidth def setlinewidth} def
/PP {closepath eofill} bdef
/DP {closepath stroke} bdef
/MR {4 -2 roll moveto dup  0 exch rlineto exch 0 rlineto
  neg 0 exch rlineto closepath} bdef
/FR {MR stroke} bdef
/PR {MR fill} bdef
/L1i {{currentfile picstr readhexstring pop} image} bdef
/tMatrix matrix def
/MakeOval {newpath tMatrix currentmatrix pop translate scale
0 0 1 0 360 arc tMatrix setmatrix} bdef
/FO {MakeOval stroke} bdef
/PO {MakeOval fill} bdef
/PD {currentlinecap 1 cap 3 1 roll 2 copy mt lineto stroke
   cap PDlw -1 eq not {PDlw w /PDlw -1 def} if} def
/FA {newpath tMatrix currentmatrix pop translate scale
  0 0 1 5 -2 roll arc tMatrix setmatrix stroke} bdef
/PA {newpath tMatrix currentmatrix pop	translate 0 0 moveto scale
  0 0 1 5 -2 roll arc closepath tMatrix setmatrix fill} bdef
/FAn {newpath tMatrix currentmatrix pop translate scale
  0 0 1 5 -2 roll arcn tMatrix setmatrix stroke} bdef
/PAn {newpath tMatrix currentmatrix pop translate 0 0 moveto scale
  0 0 1 5 -2 roll arcn closepath tMatrix setmatrix fill} bdef
/vradius 0 def /hradius 0 def /lry 0 def
/lrx 0 def /uly 0 def /ulx 0 def /rad 0 def
/MRR {/vradius xdef /hradius xdef /lry xdef /lrx xdef /uly xdef
  /ulx xdef newpath tMatrix currentmatrix pop ulx hradius add uly
  vradius add translate hradius vradius scale 0 0 1 180 270 arc 
  tMatrix setmatrix lrx hradius sub uly vradius add translate
  hradius vradius scale 0 0 1 270 360 arc tMatrix setmatrix
  lrx hradius sub lry vradius sub translate hradius vradius scale
  0 0 1 0 90 arc tMatrix setmatrix ulx hradius add lry vradius sub
  translate hradius vradius scale 0 0 1 90 180 arc tMatrix setmatrix
  closepath} bdef
/FRR {MRR stroke } bdef
/PRR {MRR fill } bdef
/MlrRR {/lry xdef /lrx xdef /uly xdef /ulx xdef /rad lry uly sub 2 div def
  newpath tMatrix currentmatrix pop ulx rad add uly rad add translate
  rad rad scale 0 0 1 90 270 arc tMatrix setmatrix lrx rad sub lry rad
  sub translate rad rad scale 0 0 1 270 90 arc tMatrix setmatrix
  closepath} bdef
/FlrRR {MlrRR stroke } bdef
/PlrRR {MlrRR fill } bdef
/MtbRR {/lry xdef /lrx xdef /uly xdef /ulx xdef /rad lrx ulx sub 2 div def
  newpath tMatrix currentmatrix pop ulx rad add uly rad add translate
  rad rad scale 0 0 1 180 360 arc tMatrix setmatrix lrx rad sub lry rad
  sub translate rad rad scale 0 0 1 0 180 arc tMatrix setmatrix
  closepath} bdef
/FtbRR {MtbRR stroke } bdef
/PtbRR {MtbRR fill } bdef
/stri 6 array def /dtri 6 array def
/smat 6 array def /dmat 6 array def
/tmat1 6 array def /tmat2 6 array def /dif 3 array def
/asub {/ind2 exch def /ind1 exch def dup dup
  ind1 get exch ind2 get sub exch } bdef
/tri_to_matrix {
  2 0 asub 3 1 asub 4 0 asub 5 1 asub
  dup 0 get exch 1 get 7 -1 roll astore } bdef
/compute_transform {
  dmat dtri tri_to_matrix tmat1 invertmatrix 
  smat stri tri_to_matrix tmat2 concatmatrix } bdef
/ds {stri astore pop} bdef
/dt {dtri astore pop} bdef
/db {2 copy /cols xdef /rows xdef mul dup 3 mul string
  currentfile exch readhexstring pop
  dup 0 3 index getinterval /rbmap xdef
  dup 2 index dup getinterval /gbmap xdef
  1 index dup 2 mul exch getinterval /bbmap xdef pop pop}bdef
/it {gs np dtri aload pop moveto lineto lineto cp c
  cols rows 8 compute_transform 
  rbmap gbmap bbmap true 3 colorimage gr}bdef
/il {newpath moveto lineto stroke}bdef
currentdict end def
%%EndProlog

%%BeginSetup
MathWorks begin

0 cap

end
%%EndSetup

%%Page: 1 1
%%BeginPageSetup
%%PageBoundingBox:    90   589   543   746
MathWorks begin
bpage
%%EndPageSetup

%%BeginObject: obj1
bplot

/dpi2point 12 def
portraitMode 0216 9288 csm

  864   336  5442  1875 MR c np
1053 dict begin %Colortable dictionary
/c0 { 0 0 0 sr} bdef
/c1 { 1 1 1 sr} bdef
/c2 { 1 0 0 sr} bdef
/c3 { 0 1 0 sr} bdef
/c4 { 0 0 1 sr} bdef
/c5 { 1 1 0 sr} bdef
/c6 { 1 0 1 sr} bdef
/c7 { 0 1 1 sr} bdef
c0
1 j
1 sg
   0    0 6914 9078 PR
6 w
0 1490 2260 0 0 -1490 899 2171 4 MP
PP
-2260 0 0 1490 2260 0 0 -1490 899 2171 5 MP stroke
4 w
DO
SO
6 w
0 sg
 899 2171 mt 3159 2171 L
 899  681 mt 3159  681 L
 899 2171 mt  899  681 L
3159 2171 mt 3159  681 L
 899 2171 mt 3159 2171 L
 899 2171 mt  899  681 L
 899 2171 mt 3159 2171 L
 899  681 mt 3159  681 L
 899 2171 mt  899  681 L
3159 2171 mt 3159  681 L
gs 899 681 2261 1491 MR c np
24 w
/c8 { 0.000000 0.000000 1.000000 sr} bdef
c8
0 -3 1 -2 1 -1 1 0 0 -1 3 -2 2 -1 4 -1 
3 0 1 -1 1 -1 2 0 1 -1 2 0 7 -1 2 -2 
2 -1 3 -1 1 -1 1 0 2 -1 2 0 3 -2 1 0 
4 -1 2 -1 4 0 2 -2 1 0 1 -1 2 -1 1 -1 
1 0 0 -2 2 0 1 -1 12 -1 1 -1 2 -1 1 -1 
3 0 1 -1 2 -1 2 0 1 -1 2 0 1 -1 3 -1 
2 0 3 -1 2 -1 2 0 1 -1 1 -1 1 0 -1 0 
3 -2 1 -1 2 0 1 -1 2 -1 2 -1 0 -1 4 -1 
2 -1 5 -1 1 -1 1 -1 0 -1 1 -1 4 0 1 -1 
2 -1 1 -1 1 0 2 -1 5 -1 4 -1 1 -1 2 0 
2 -1 1 -1 1 -1 3 0 12 -1 2 -1 5 0 2 -1 
1 -1 1 0 5 -1 2 0 1 -1 2 -1 5 -1 2 -1 
9 0 0 -1 1 -1 2944 762 100 MP stroke
4 0 1 -1 2 0 3 -1 1 -1 5 0 2 -1 1 -1 
4 0 0 -1 1 -1 1 0 -1 0 3 -2 1 -1 2 0 
1 -1 1 -1 0 -1 1 -1 1 -1 3 -1 2 -1 1 -1 
2 -1 3 -1 2 0 0 -1 6 -1 2 -1 1 -1 2 0 
1 -1 1 -1 0 -1 2 0 1 -1 1 -1 4 0 1 -1 
0 -4 2 0 0 -2 3 0 0 -2 4 -2 1 0 -1 0 
3 -1 2 -1 3 -1 3 -1 1 -1 0 -1 1 -1 2 0 
0 -1 1 -1 1 -1 2 0 1 -1 1 -1 1 -1 4 -1 
4 0 3 -1 6 0 4 -1 1 -1 1 0 -1 0 4 -2 
5 0 3 -1 0 -1 2 -1 2 0 0 -1 1 -1 7 0 
1 -1 0 -1 2 0 5 -2 2 -1 1 -1 1 -1 1 0 
2 -1 2 -1 2 0 4 -1 7 -1 2 -1 1 0 1 -1 
1 -1 1 -2 1 0 2761 842 100 MP stroke
2 -1 1 0 -1 0 2 -2 3 -1 1 -1 3 0 1 -1 
0 -1 2 0 0 -1 2 0 0 -1 1 -1 1 -1 2 -1 
3 -1 2 -1 2 0 0 -1 2 0 1 -2 3 -1 2 -1 
1 0 1 -1 1 -1 2 0 1 -1 1 0 2 -1 1 -1 
3 -1 4 -1 2 0 3 -1 0 -1 1 -1 6 -1 1 -1 
1 -1 1 -1 2 -1 1 -1 1 0 2 -1 1 0 5 -1 
1 -1 2 0 1 -1 2 -1 2 0 0 -2 3 -1 2 0 
0 -1 1 -1 0 -1 1 -1 2 -1 2 -1 0 -1 1 -1 
1 -1 3 -1 0 -1 2 -1 2 0 0 -1 2 -1 0 -1 
1 -1 0 -1 1 -1 2 -1 2 -1 1 -1 3 0 3 -1 
1 -2 1 -1 2 -1 1 0 1 -1 2 -1 2 -1 0 -1 
1 -1 0 -1 2 0 2 -1 0 -1 1 -1 2 -1 1 -1 
3 -1 2 -1 1 -1 2614 925 100 MP stroke
1 0 -1 0 2 -2 0 -2 2 -1 0 -1 1 -1 3 0 
1 -2 1 0 2 -1 1 -1 1 -1 1 -1 4 -1 1 -1 
3 -1 1 -1 0 -1 3 0 1 -1 1 -1 1 -1 1 -1 
0 -2 1 -1 1 -1 1 -1 1 -1 2 0 3 -1 0 -1 
3 0 1 -1 1 -1 1 -1 1 0 -1 0 4 -2 1 -1 
0 -1 2 -1 1 -1 1 -1 1 -1 0 -1 1 -1 0 -1 
2 -2 0 -1 2 0 0 -2 2 -2 3 -1 2 -1 2 -1 
1 -1 1 -1 1 -1 1 -1 1 -1 1 -1 1 -1 1 0 
2 -1 3 -1 1 -1 3 -1 1 0 1 -1 2 -1 1 -1 
4 0 1 -1 1 -1 2 -1 1 -1 1 -1 1 -1 1 -1 
1 0 -1 0 2 -2 1 -1 2 -1 2 0 0 -1 2 -1 
1 0 -1 0 3 -2 1 -1 1 -1 1 -1 1 -1 1 -1 
2 -1 1 -1 0 -1 2490 1016 100 MP stroke
2 -1 0 -1 3 0 1 -1 1 -1 1 -1 2 -1 1 -1 
1 0 -1 0 2 -2 0 -4 1 -1 1 -1 0 -1 3 -1 
2 0 0 -1 1 -1 0 -1 1 -1 1 0 -1 0 2 -2 
1 -1 1 -1 1 -1 1 0 -1 0 2 -2 1 -1 1 -1 
1 -1 1 0 0 -2 2 -1 0 -1 2 -1 0 -1 3 -1 
1 -2 1 0 0 -2 2 -1 0 -1 3 -1 0 -2 3 -1 
1 -1 1 -1 0 -1 2 0 2 -1 0 -1 1 -1 0 -2 
3 -1 0 -1 1 -1 2 0 1 -2 1 0 1 -1 1 -1 
2 -1 2 0 1 -1 0 -1 3 -1 0 -1 2 -1 0 -2 
3 0 1 -1 1 -1 2 -1 1 -1 1 -1 1 -1 0 -1 
2 -2 0 -2 2 -2 0 -1 2 -2 1 -1 2 -1 2 0 
1 -1 1 -1 1 -1 5 -1 1 -1 2 -1 2 -1 0 -2 
2 0 1 -2 1 -1 2375 1117 100 MP stroke
1 0 1 -1 1 -1 0 -2 1 -1 0 -2 4 -1 1 -1 
1 0 -1 0 2 -2 1 -1 0 -1 1 -1 1 0 -1 0 
2 -2 0 -1 2 -2 1 -1 1 -1 1 0 -1 0 4 -2 
1 -1 2 0 0 -1 1 -1 1 0 -1 0 2 -2 2 0 
0 -1 1 -1 1 -1 1 0 -1 0 2 -2 1 -1 0 -1 
2 0 1 -1 2 -2 1 0 0 -2 2 0 1 -1 1 -1 
0 -2 2 0 0 -1 1 -1 0 -1 2 0 0 -1 1 -1 
0 -1 1 -1 0 -2 2 -1 1 -1 1 -1 0 -1 1 -1 
0 -2 2 -1 1 -1 3 -1 0 -1 1 -1 1 -1 2 -1 
0 -1 1 -1 0 -1 3 -1 0 -1 2 -1 1 0 -1 0 
2 -2 1 -1 0 -1 1 -1 4 -1 1 -1 1 0 -1 0 
2 -2 2 0 0 -1 1 -1 0 -1 2 -2 0 -1 1 -1 
1 -1 1 -1 1 -1 2281 1209 100 MP stroke
1 0 -1 0 4 -2 1 -2 1 0 1 -1 1 -1 0 -1 
2 -2 2 0 1 -1 0 -1 1 -1 1 -1 1 -1 1 -1 
2 -1 0 -2 1 -1 1 -1 0 -1 2 -2 2 -1 1 -1 
1 -1 0 -1 2 -2 1 -1 2 0 0 -2 2 0 1 -1 
0 -1 2 0 0 -1 2 -2 1 -1 1 -2 1 0 1 -1 
1 -1 3 0 1 -1 1 -1 1 -1 2 -1 1 0 1 -1 
1 0 -1 0 2 -2 1 0 -1 0 2 -2 1 0 -1 0 
2 -2 1 -1 1 -1 2 -1 0 -1 1 -1 1 -1 1 -2 
1 0 2 -2 1 0 0 -2 1 -1 1 -1 1 -1 2 -1 
1 -1 1 -1 0 -1 2 -2 0 -1 2 0 1 -1 2 -2 
1 -1 1 -1 1 -1 1 -1 1 0 0 -2 2 -2 2 0 
1 -2 1 0 1 -1 2 -1 1 -1 2 -1 0 -1 1 -1 
1 -1 1 -1 3 -1 2173 1306 100 MP stroke
2 -1 1 0 -1 0 2 -2 0 -1 2 -2 2 -1 1 -1 
2 -1 1 -1 0 -2 2 -1 0 -1 1 -1 1 -1 1 -1 
1 -1 1 -1 1 -1 2 -1 1 -1 0 -1 1 -1 1 -1 
1 0 0 -2 2 -1 0 -1 2 -1 1 -1 1 -1 1 -1 
1 -1 1 -1 2 -1 1 0 -1 0 3 -2 1 -2 1 -1 
1 0 0 -2 2 0 0 -1 1 -1 1 -1 0 -1 1 -1 
2 0 2 -1 1 -1 1 -1 1 -1 1 -1 2 -2 1 0 
1 -1 2 -1 1 0 0 -2 2 0 0 -1 4 0 1 -1 
0 -1 2 -1 1 -1 0 -1 1 -1 0 -1 2 -1 0 -1 
1 -1 2 -1 1 -1 1 0 0 -3 1 -1 0 -2 1 -1 
1 -1 0 -1 2 -2 1 -1 1 -1 1 -1 0 -2 3 -1 
1 -1 2 0 0 -1 1 -1 1 -1 1 -1 1 -1 2 -1 
1 -1 1 0 1 -2 2069 1405 100 MP stroke
1 0 0 -2 1 -1 3 0 0 -1 1 -1 0 -2 2 0 
1 -1 0 -2 2 -2 0 -1 1 -1 0 -1 2 -2 1 -2 
1 -1 1 -1 2 -1 1 0 1 -1 2 -1 2 -1 0 -1 
2 -1 1 -1 0 -1 2 0 0 -2 2 0 1 -1 0 -1 
2 -1 0 -1 1 -1 0 -2 4 -2 2 -1 1 -1 1 -1 
1 -1 1 -1 0 -2 2 0 1 -1 1 -1 1 -1 1 -1 
1 -1 1 0 -1 0 2 -2 0 -1 2 0 0 -1 1 -1 
2 0 1 -2 1 -1 1 -1 1 0 1 -1 1 0 -1 0 
2 -2 0 -2 1 -1 0 -1 1 -1 0 -1 1 -1 0 -3 
1 -1 1 0 -1 0 3 -1 1 -1 0 -1 2 -1 0 -1 
2 -2 0 -1 2 -1 0 -1 3 0 2 -1 0 -1 2 0 
0 -2 1 -1 0 -2 2 -2 1 -1 1 -2 1 0 1 -2 
1 0 1 -1 1 -1 1971 1506 100 MP stroke
1 -1 1 -1 3 -1 1 0 -1 0 2 -2 2 -1 0 -1 
1 -1 2 -1 1 -1 1 -1 0 -1 1 -1 1 -1 1 -1 
1 -1 0 -2 1 -1 1 -1 2 -1 2 -1 2 -1 1 -1 
0 -1 1 -1 2 -1 1 -1 1 -1 1 -1 0 -2 1 -1 
0 -1 1 -1 1 -1 1 -1 0 -1 3 -2 1 -1 1 0 
1 -1 0 -2 1 -1 2 0 1 -2 1 -1 1 0 1 -1 
2 -1 0 -2 2 -2 0 -2 1 -1 0 -1 1 -1 2 -1 
0 -1 1 -1 3 -2 1 0 1 -1 1 -1 1 -1 1 -2 
1 0 0 -2 3 -2 1 -1 1 -1 1 -1 0 -1 1 -1 
0 -1 1 -1 1 -1 0 -1 2 -1 2 -1 0 -1 1 -1 
1 -1 1 -1 1 -2 3 0 1 -1 5 -1 1 -1 1 -1 
1 0 1 -2 1 0 2 -1 1 0 -1 0 2 -2 4 -1 
1 -1 1 -1 1 0 1861 1608 100 MP stroke
-1 0 2 -2 1 0 -1 0 2 -2 0 -1 1 -1 0 -1 
2 -1 1 -1 0 -1 1 -1 1 0 -1 0 2 -2 0 -1 
3 -2 1 -1 1 -2 1 -1 1 0 0 -2 1 -1 1 -1 
1 -1 1 0 -1 0 2 -2 1 -1 1 -1 1 -1 1 -1 
0 -1 2 -2 0 -1 2 -2 1 0 -1 0 2 -3 1 -1 
1 0 0 -1 2 -2 1 -1 0 -1 2 -2 1 0 -1 0 
2 -2 1 -1 0 -2 1 -1 1 -1 1 -1 1 -1 1 -1 
1 -2 1 0 1 -1 1 -1 1 -1 1 0 2 -1 1 -1 
1 -2 1 0 0 -1 2 -2 1 -1 0 -1 2 -2 0 -3 
2 -1 0 -1 3 0 0 -1 1 -1 0 -2 2 -1 1 -2 
1 0 1 -1 1 -1 2 0 1 -1 3 -1 1 -1 0 -2 
2 -1 1 -1 1 -1 2 0 0 -1 1 -1 1 -1 1 -1 
1 -1 2 -1 1 -1 1766 1711 100 MP stroke
1 0 -1 0 2 -2 2 -2 1 0 1 -1 1 -1 1 -1 
1 0 -1 0 2 -2 1 -1 0 -1 2 -1 1 -1 2 -1 
1 -1 0 -1 2 0 0 -1 1 -1 1 0 -1 0 3 -1 
1 -1 2 -1 1 -1 1 -1 0 -1 1 -1 1 -1 0 -2 
2 -1 0 -1 3 0 0 -2 2 -2 1 -1 1 -1 1 -1 
1 -2 1 0 0 -1 2 -2 0 -1 1 -1 0 -1 1 -1 
0 -1 4 -2 1 -1 1 -1 2 0 2 -1 1 -2 1 0 
1 -1 1 -1 2 0 1 -1 0 -2 1 -1 2 -1 2 -1 
0 -2 1 -1 1 -1 2 -1 1 -1 0 -1 1 -1 1 -1 
1 -1 1 -1 1 0 1 -1 1 -1 1 0 -1 0 3 -2 
0 -1 1 -1 0 -1 2 0 0 -2 2 -1 1 -1 0 -1 
1 -1 1 -1 0 -2 3 0 1 -2 1 0 0 -2 1 -1 
0 -2 1 -1 2 -1 1666 1809 100 MP stroke
0 -1 1 -1 1 -1 2 -1 1 -1 1 -1 1 -1 1 0 
-1 0 2 -2 0 -1 2 -2 1 -1 1 -1 1 0 -1 0 
2 -2 2 -1 0 -1 1 -1 1 -2 1 0 1 -1 2 -1 
1 0 2 -1 2 -1 0 -1 3 -1 1 -1 2 0 0 -1 
1 -1 0 -1 2 -2 0 -1 2 -1 3 0 2 -1 1 -1 
1 -1 3 -1 0 -1 2 0 0 -1 1 -1 3 -1 3 0 
0 -3 1 -1 4 0 1 -1 0 -1 1 -1 1 -1 1 -1 
1 0 0 -2 2 -1 0 -1 1 -1 2 -1 1 -1 1 -1 
0 -1 2 -2 2 -1 1 -1 0 -1 1 -1 0 -2 1 -1 
0 -1 1 -1 1 -1 3 -1 1 -1 1 0 -1 0 2 -2 
2 0 0 -1 2 -2 1 -1 1 -1 1 0 -1 0 2 -2 
0 -1 1 -1 0 -1 3 -2 3 -1 1 -1 0 -1 2 0 
0 -1 2 -1 3 -2 1553 1905 100 MP stroke
2 0 1 -1 1 -1 2 -1 1 0 1 -1 0 -1 2 -2 
1 0 -1 0 2 -2 1 -1 1 0 -1 0 2 -2 2 0 
1 -1 0 -2 2 -2 2 0 1 -2 1 0 1 -1 2 -1 
2 -1 1 -1 1 -1 0 -2 2 -2 1 -1 0 -2 2 -2 
1 -1 0 -1 1 -1 1 -2 1 0 1 -1 1 -1 1 0 
2 -1 0 -2 3 0 1 -1 0 -1 2 0 1 -1 1 -1 
2 0 1 -1 0 -1 2 0 0 -1 2 -1 0 -1 2 -1 
0 -1 2 -2 1 0 -1 0 6 -2 1 -1 0 -2 2 0 
3 -1 1 0 -1 0 3 -2 2 -1 1 -1 1 -2 1 0 
0 -1 2 -2 1 -1 1 -1 1 0 -1 0 2 -2 0 -1 
2 -2 1 -1 0 -1 2 -2 1 -1 0 -1 1 -1 1 -2 
1 -1 3 -1 2 -1 1 0 1 -1 0 -1 2 -2 2 -1 
1 -1 1 -1 1 -1 1440 2003 100 MP stroke
2 -1 2 -1 1 -1 1 0 2 -2 1 -1 1 0 0 -2 
2 0 1 -1 1 -1 1 -1 0 -1 3 -1 0 -1 1 -1 
3 -1 1 -1 1 -1 1 -1 1 -1 0 -1 1 -1 6 -1 
1 -1 3 0 2 -1 2 -1 0 -1 1 -1 2 -1 3 -1 
0 -1 1 -1 2 0 1 -1 1 -1 2 0 1 -1 0 -1 
5 0 3 -1 0 -1 3 -1 2 -1 0 -1 2 -2 0 -1 
2 -1 0 -1 4 -1 0 -1 1 -1 1 -1 1 -2 1 0 
2 -1 2 -1 1 -1 1 0 0 -2 1 -1 1 -1 0 -1 
2 0 1 -2 2 0 3 -1 1 -1 1 0 1 -1 1 -1 
1 -1 1 0 -1 0 4 -2 4 0 1 -1 1 -1 0 -2 
2 0 2 -1 2 0 2 -1 3 -1 1 0 -1 0 2 -2 
1 -1 1 0 2 -2 1 0 1 -1 1 -1 2 -1 1 -1 
1 0 -1 0 2 -2 1304 2090 100 MP stroke
1 -1 0 -1 1 -1 1 -1 2 -1 1 -1 1 0 2 -1 
1 -1 2 -1 1 -1 1 -2 1 0 0 -1 2 -2 2 -1 
1 -1 10 0 2 -1 2 -1 1 -1 0 -1 1 -1 3 -1 
1 -1 5 -1 1 -1 3 0 0 -1 2 0 1 -2 1 0 
3 -1 2 -1 2 0 1 -1 1 -1 5 -1 2 0 1 -1 
1 -1 2 0 1 -1 2 -1 3 -1 1 -1 1 -1 1 0 
1 -1 3 -1 2 0 1 -1 1 -1 2 -1 3 -1 6 -1 
2 0 1 -1 2 -1 3 0 6 -1 1 -1 2 0 5 -1 
5 0 1 -1 2 -1 9 0 2 -1 1 -1 1 0 1 -1 
3 -1 1 0 6 -1 8 0 4 -1 4 -1 1 -1 1 -1 
7 -1 12 -1 2 0 2 -1 6 -1 1 -1 9 -1 1 -1 
1 0 11 -2 7 0 10 -1 33 -1 7 -1 14 0 1 -1 
4 -1 1 0 11 -1 991 2169 100 MP stroke
9 -1 31 0 951 2170 3 MP stroke
/c9 { 0.000000 1.000000 0.000000 sr} bdef
c9
23 -14 23 -15 22 -15 23 -15 22 -15 23 -15 23 -15 22 -15 
23 -15 22 -15 23 -14 23 -15 22 -15 23 -15 22 -15 23 -15 
23 -15 22 -15 23 -15 22 -14 23 -15 23 -15 22 -15 23 -15 
22 -15 23 -15 23 -15 22 -15 23 -15 22 -15 23 -14 23 -15 
22 -15 23 -15 22 -15 23 -15 23 -15 22 -15 23 -15 22 -15 
23 -14 23 -15 22 -15 23 -15 22 -15 23 -15 23 -15 22 -15 
23 -15 22 -15 23 -14 23 -15 22 -15 23 -15 22 -15 23 -15 
23 -15 22 -15 23 -15 22 -15 23 -14 23 -15 22 -15 23 -15 
22 -15 23 -15 23 -15 22 -15 23 -15 22 -15 23 -14 23 -15 
22 -15 23 -15 22 -15 23 -15 23 -15 22 -15 23 -15 22 -15 
23 -14 23 -15 22 -15 23 -15 22 -15 23 -15 23 -15 22 -15 
23 -15 22 -15 23 -14 23 -15 22 -15 23 -15 22 -15 23 -15 
23 -15 22 -15 23 -15 921 2156 100 MP stroke
22 -15 899 2171 2 MP stroke
12 w
/c10 { 1.000000 0.000000 0.000000 sr} bdef
c10
4 -2 23 -15 22 -15 23 -15 23 -15 22 -15 23 -15 22 -15 
23 -15 23 -14 22 -15 23 -15 22 -15 23 -15 23 -15 22 -15 
23 -15 22 -15 23 -15 23 -14 22 -15 23 -15 22 -15 23 -15 
23 -15 22 -15 23 -15 22 -15 23 -15 23 -14 22 -15 23 -15 
22 -15 23 -15 23 -15 22 -15 23 -15 22 -15 23 -15 23 -14 
22 -15 23 -15 22 -15 23 -15 23 -15 22 -15 23 -15 22 -15 
23 -15 23 -14 22 -15 23 -15 22 -15 23 -15 23 -15 22 -15 
23 -15 22 -15 23 -15 23 -14 22 -15 23 -15 22 -15 23 -15 
23 -15 22 -15 23 -15 22 -15 23 -15 23 -14 22 -15 23 -15 
22 -15 23 -15 23 -15 22 -15 23 -15 22 -15 23 -15 23 -14 
22 -15 23 -15 22 -15 23 -15 23 -15 22 -15 23 -15 22 -15 
23 -15 23 -14 22 -15 23 -15 22 -15 23 -15 23 -15 22 -15 
23 -15 22 -15 899 2129 99 MP stroke
899 2212 PD
23 -15 23 -15 22 -15 23 -15 22 -15 23 -15 23 -15 22 -15 
23 -14 22 -15 23 -15 23 -15 22 -15 23 -15 22 -15 23 -15 
23 -15 22 -15 23 -14 22 -15 23 -15 23 -15 22 -15 23 -15 
22 -15 23 -15 23 -15 22 -15 23 -14 22 -15 23 -15 23 -15 
22 -15 23 -15 22 -15 23 -15 23 -15 22 -15 23 -14 22 -15 
23 -15 23 -15 22 -15 23 -15 22 -15 23 -15 23 -15 22 -15 
23 -14 22 -15 23 -15 23 -15 22 -15 23 -15 22 -15 23 -15 
23 -15 22 -15 23 -14 22 -15 23 -15 23 -15 22 -15 23 -15 
22 -15 23 -15 23 -15 22 -15 23 -14 22 -15 23 -15 23 -15 
22 -15 23 -15 22 -15 23 -15 23 -15 22 -15 23 -14 22 -15 
23 -15 23 -15 22 -15 23 -15 22 -15 23 -15 23 -15 22 -15 
23 -14 22 -15 23 -15 23 -15 22 -15 23 -15 22 -15 23 -15 
23 -15 6 -4 960 2172 99 MP stroke
gr

12 w
c10
0 sg
%%IncludeResource: font Helvetica-Bold
/Helvetica-Bold /ISOLatin1Encoding 168 FMSR

1717  545 mt 
(Cortical) s
6 w
1 sg
0 1490 2260 0 0 -1490 3996 2171 4 MP
PP
-2260 0 0 1490 2260 0 0 -1490 3996 2171 5 MP stroke
4 w
DO
SO
6 w
0 sg
3996 2171 mt 6256 2171 L
3996  681 mt 6256  681 L
3996 2171 mt 3996  681 L
6256 2171 mt 6256  681 L
3996 2171 mt 6256 2171 L
3996 2171 mt 3996  681 L
3996 2171 mt 6256 2171 L
3996  681 mt 6256  681 L
3996 2171 mt 3996  681 L
6256 2171 mt 6256  681 L
gs 3996 681 2261 1491 MR c np
24 w
c8
0 -3 3 -2 0 -1 4 -1 0 -2 1 -1 2 -1 3 -1 
0 -1 4 -2 1 -1 0 -2 4 -1 0 -1 3 -1 1 -1 
1 -1 0 -2 2 -1 1 -1 5 -1 1 -1 2 -1 0 -1 
6 -1 5 -2 28 -1 2 -1 3 -1 4 -1 4 -1 0 -1 
1 -1 4 -1 1 -2 3 -1 2 -1 0 -1 2 -1 4 -1 
1 -1 1 -1 1 -1 7 -2 4 -1 4 -1 3 -1 3 -1 
1 -1 1 -1 2 -1 1 -2 0 -1 5 -1 6 -1 5 -1 
3 -1 1 -1 2 -1 0 -3 1 -1 1 -1 1 -1 3 -1 
3 -1 1 -1 2 -1 1 -1 3 -2 5 -1 0 -1 1 -1 
1 -1 1 -1 0 -1 2 -1 0 -2 2 -1 2 -1 2 -1 
5 -1 4 -1 1 -1 3 -1 2 -1 1 -2 2 -1 4 -1 
1 -1 1 -1 1 -1 0 -1 4 -1 0 -1 2 -2 1 -1 
3 -1 1 -1 0 -1 6029 797 100 MP stroke
3 -1 2 -1 2 -1 1 -2 0 -2 1 -1 6 -1 3 -1 
2 -1 3 -1 2 -1 1 -2 0 -2 1 -1 5 -1 3 -1 
7 -1 1 -1 3 -1 0 -2 2 -1 5 -1 2 -1 4 -1 
1 -1 2 -1 1 -1 8 -2 2 -1 1 -1 2 -1 9 -1 
3 -1 1 -1 8 -1 4 -1 11 -2 0 -1 3 -1 0 -1 
2 -1 1 -1 6 -1 6 -1 2 -1 3 -2 0 -1 1 -1 
2 -1 1 -1 0 -1 4 -1 2 -1 0 -2 2 -1 2 -1 
4 -1 3 -1 1 -1 0 -1 3 -1 1 -1 0 -2 1 -1 
1 -1 1 -1 2 -1 0 -2 1 -1 0 -1 2 -2 2 -1 
0 -1 2 -1 4 -1 5 -1 0 -1 4 -1 3 -1 3 -2 
1 -1 0 -1 1 -1 3 -1 2 -1 1 -1 1 -1 2 -2 
3 -1 3 -1 0 -1 1 -1 1 -1 1 -1 1 -1 1 -1 
2 -2 2 -1 2 -1 5809 911 100 MP stroke
7 -1 4 -1 2 -1 0 -2 5 -1 6 -2 0 -1 1 -1 
1 -1 5 -1 0 -3 1 -2 2 -1 0 -1 4 -1 1 -1 
4 -1 1 -1 1 -1 2 -1 1 -2 2 -1 0 -1 2 -1 
1 -1 2 -1 1 -1 1 -1 3 -1 1 -2 0 -1 7 -1 
1 -1 0 -2 1 -1 0 -3 2 -1 2 -1 7 -1 3 -1 
2 -1 8 -1 5 -1 3 -1 1 -2 2 -1 1 -1 2 -1 
11 -1 2 -1 1 -1 0 -1 1 -1 2 -2 0 -1 3 -1 
1 -1 0 -1 3 -1 0 -1 1 -1 2 -2 0 -1 6 -1 
2 -1 0 -1 2 -1 1 -1 0 -2 6 -2 0 -1 12 -1 
3 -1 1 -1 1 -1 0 -1 3 -1 1 -1 2 -2 1 -1 
0 -1 8 -1 0 -1 2 -1 0 -1 3 -1 4 -2 2 -1 
1 -1 0 -2 1 -1 1 -1 0 -1 7 -1 1 -2 5 -1 
2 -1 1 -1 0 -1 5595 1029 100 MP stroke
2 -1 3 -1 0 -1 1 -1 1 -2 0 -1 10 -1 1 -1 
1 -1 3 -1 1 -1 3 -1 2 -2 2 -1 1 -1 3 -1 
3 -1 0 -1 1 -1 2 -1 2 -1 0 -2 1 -1 3 -1 
1 -1 0 -2 1 -1 1 -1 1 -1 1 -2 1 -1 0 -1 
5 -1 0 -1 2 -1 1 -1 5 -1 0 -2 1 -1 5 -1 
2 -1 2 -1 1 -1 0 -1 1 -1 3 -1 0 -2 1 -1 
0 -1 1 -1 1 -1 1 -1 1 -1 0 -2 1 -2 0 -1 
3 -1 1 -1 3 -1 0 -2 2 -1 2 -2 1 -1 2 -1 
2 -1 2 -1 9 -1 0 -1 1 -1 2 -1 0 -4 3 -1 
0 -1 3 -1 1 -1 1 -1 2 -1 4 -2 0 -1 1 -1 
2 -1 0 -1 1 -1 1 -1 2 -1 3 -2 2 -1 1 -1 
1 -1 1 -1 0 -1 4 -1 1 -1 0 -1 1 -2 3 -1 
1 -1 3 -1 1 -1 5436 1145 100 MP stroke
1 -1 0 -1 4 -1 1 -1 3 -2 1 -1 0 -1 2 -1 
1 -1 1 -1 0 -2 1 -2 1 -1 1 -1 1 -1 0 -1 
1 -1 0 -1 3 -1 2 -1 1 -2 0 -1 2 -1 2 -1 
1 -1 3 -1 0 -1 5 -1 0 -3 1 -1 1 -1 1 -1 
5 -1 1 -1 10 -1 0 -3 4 -1 2 -1 1 -1 1 -1 
0 -1 2 -1 1 -1 0 -1 1 -2 1 -1 0 -1 1 -1 
5 -1 1 -1 0 -1 5 -1 2 -1 0 -3 1 -1 4 -1 
2 -1 4 -1 1 -1 4 -1 1 -2 3 -1 0 -1 4 -1 
1 -1 3 -1 1 -1 1 -1 1 -1 0 -2 1 -1 3 -1 
1 -1 3 -1 4 -1 0 -1 7 -1 1 -1 0 -2 1 -1 
4 -1 2 -1 1 -1 4 -1 1 -1 0 -1 2 -1 1 -2 
0 -1 1 -1 1 -1 0 -1 2 -1 0 -1 2 -1 0 -2 
1 -1 3 -1 1 -1 5274 1260 100 MP stroke
1 -1 0 -1 1 -1 2 -1 0 -1 1 -2 1 -1 1 -1 
1 -1 1 -1 2 -1 3 -1 3 -1 1 -1 2 -2 1 -1 
0 -1 1 -1 1 -1 0 -2 3 -1 2 -2 0 -2 1 -1 
0 -1 1 -1 2 -1 6 -1 0 -1 3 -2 2 -1 1 -1 
1 -1 3 -1 4 -1 1 -1 0 -1 2 -1 8 -2 0 -1 
3 -1 0 -1 3 -1 0 -2 1 -1 2 -2 2 -1 2 -1 
0 -1 4 -1 1 -1 0 -1 2 -1 1 -1 3 -2 1 -1 
2 -1 3 -1 0 -2 1 -1 1 -1 1 -1 2 -2 2 -1 
1 -1 0 -1 1 -1 0 -2 2 -1 6 -2 0 -1 2 -1 
2 -1 0 -2 1 -1 3 -1 2 -1 0 -2 2 -1 2 -1 
2 -1 0 -1 1 -1 1 -1 0 -1 1 -1 1 -2 0 -1 
1 -1 0 -2 2 -1 4 -1 5 -1 2 -2 1 -1 0 -1 
1 -1 6 -1 3 -1 5119 1378 100 MP stroke
2 -1 0 -2 1 -2 1 -1 2 -1 0 -1 1 -1 1 -1 
2 -1 1 -1 2 -1 1 -2 0 -1 4 -1 3 -1 2 -1 
3 -1 1 -1 8 -1 0 -2 1 -1 0 -2 3 -1 0 -1 
1 -1 2 -1 2 -1 1 -2 0 -1 2 -1 2 -1 3 -1 
3 -1 2 -1 2 -1 1 -1 1 -2 1 -1 0 -1 1 -1 
1 -1 0 -3 2 -2 3 -1 1 -1 1 -1 1 -1 0 -1 
2 -1 0 -1 6 -1 0 -3 1 -1 0 -1 3 -1 2 -1 
1 -1 10 -1 1 -1 1 -2 0 -2 3 -1 0 -4 1 -2 
2 -1 1 -1 1 -1 1 -1 1 -1 2 -1 1 -1 3 -1 
4 -2 0 -3 3 -1 2 -1 1 -1 1 -1 2 -1 1 -2 
0 -2 1 -1 3 -1 2 -1 0 -1 1 -1 1 -2 2 -1 
0 -1 1 -1 2 -1 0 -1 3 -1 1 -1 1 -1 2 -2 
1 -1 0 -1 1 -1 4968 1502 100 MP stroke
3 -1 0 -1 1 -1 1 -1 1 -1 0 -4 5 -1 1 -1 
0 -1 3 -1 0 -1 1 -2 1 -1 0 -2 2 -1 2 -1 
1 -1 3 -1 2 -1 3 -2 1 -1 0 -1 1 -1 0 -1 
2 -1 0 -1 1 -1 0 -1 1 -2 2 -1 1 -1 0 -1 
1 -1 2 -1 0 -4 1 -1 0 -1 6 -1 0 -1 1 -1 
1 -1 1 -1 1 -1 2 -2 1 -1 0 -1 2 -1 5 -1 
1 -1 0 -2 1 -1 0 -3 3 -1 1 -1 0 -1 1 -1 
0 -2 2 -2 0 -1 2 -1 0 -1 1 -1 2 -1 0 -1 
3 -1 1 -1 2 -2 1 -1 1 -1 0 -1 2 -1 0 -2 
3 -1 2 -1 2 -2 1 -1 2 -1 0 -1 4 -1 2 -1 
1 -1 0 -1 4 -2 0 -1 1 -1 1 -1 0 -2 3 -1 
1 -1 0 -1 1 -2 3 -1 1 -1 0 -1 6 -1 0 -3 
1 -1 0 -2 1 -1 4841 1626 100 MP stroke
2 -1 1 -1 3 -1 0 -1 1 -1 7 -1 2 -1 0 -2 
1 -1 0 -2 2 -1 2 -1 2 -1 0 -1 1 -2 3 -1 
1 -1 0 -1 4 -1 2 -1 0 -1 3 -1 0 -1 1 -2 
2 -1 1 -1 0 -2 1 -1 1 -1 0 -1 3 -1 1 -2 
6 -1 0 -2 1 -1 1 -1 2 -1 4 -1 0 -3 1 -1 
0 -2 1 -1 2 -1 0 -2 1 -2 0 -1 1 -1 0 -1 
1 -1 2 -1 1 -1 2 -1 0 -1 2 -2 0 -1 2 -1 
1 -1 2 -1 0 -1 2 -1 3 -1 0 -2 2 -1 3 -1 
1 -1 0 -1 2 -1 1 -1 1 -1 2 -1 1 -2 1 -1 
0 -1 5 -1 2 -1 1 -1 1 -1 2 -1 4 -1 1 -2 
1 -1 3 -1 2 -1 2 -1 0 -1 1 -1 0 -1 6 -2 
0 -1 2 -1 0 -1 1 -1 1 -1 3 -1 0 -1 2 -1 
1 -2 0 -2 2 -1 4699 1744 100 MP stroke
1 -1 0 -1 1 -1 2 -1 3 -1 1 -2 4 -1 0 -3 
7 -1 2 -1 4 -1 1 -2 2 -1 1 -1 2 -1 1 -1 
0 -2 1 -1 0 -1 2 -2 1 -1 0 -1 1 -1 1 -1 
2 -1 1 -1 1 -1 1 -1 1 -2 0 -1 2 -1 7 -1 
0 -2 1 -1 1 -1 0 -3 2 -1 0 -1 2 -1 1 -1 
3 -1 2 -1 2 -1 0 -2 2 -1 1 -1 3 -1 2 -1 
0 -1 1 -1 0 -1 2 -1 0 -2 3 -1 2 -1 0 -1 
2 -1 0 -1 1 -1 0 -1 3 -2 0 -1 1 -1 1 -1 
3 -1 2 -1 1 -1 2 -1 5 -1 4 -2 4 -1 1 -1 
0 -1 1 -1 0 -2 1 -1 1 -1 0 -2 2 -1 1 -1 
0 -1 1 -1 3 -1 1 -1 1 -1 2 -2 1 -1 2 -1 
2 -1 1 -1 1 -1 0 -1 1 -1 4 -1 2 -2 1 -1 
1 -1 5 -1 0 -1 4551 1861 100 MP stroke
2 -1 0 -1 1 -1 1 -1 0 -2 1 -1 1 -1 1 -1 
0 -1 1 -1 0 -1 1 -1 0 -2 1 -1 0 -1 1 -1 
1 -1 3 -1 1 -1 1 -1 1 -1 2 -2 0 -1 1 -1 
2 -1 3 -1 2 -1 1 -1 2 -1 2 -1 0 -2 3 -1 
0 -2 2 -1 0 -1 1 -1 2 -1 1 -2 1 -1 2 -1 
4 -1 2 -1 1 -1 1 -1 2 -1 2 -1 0 -2 3 -1 
2 -1 0 -1 1 -1 1 -1 2 -1 3 -1 0 -1 1 -2 
4 -1 1 -1 0 -1 2 -1 0 -2 3 -1 2 -2 0 -1 
1 -1 0 -1 1 -1 2 -1 2 -1 2 -1 1 -1 0 -2 
1 -1 1 -1 5 -1 0 -1 3 -1 0 -2 1 -1 1 -2 
1 -1 0 -1 3 -1 1 -1 2 -1 2 -1 0 -3 2 -1 
1 -1 1 -1 2 -1 0 -1 4 -1 0 -4 1 -1 1 -1 
3 -1 1 -1 0 -1 4423 1978 100 MP stroke
7 -1 1 -1 2 -1 7 -2 2 -1 0 -1 3 -1 9 -1 
0 -1 1 -1 3 -1 1 -1 0 -2 4 -1 0 -1 2 -1 
0 -1 2 -1 0 -1 5 -1 1 -2 1 -1 3 -1 1 -1 
2 -1 1 -1 0 -2 4 -1 1 -2 0 -1 1 -1 2 -1 
0 -2 1 -1 1 -1 0 -1 1 -2 1 -1 0 -1 2 -1 
1 -1 2 -1 3 -1 2 -1 0 -4 2 -1 0 -1 2 -1 
4 -1 1 -1 0 -1 1 -2 0 -1 2 -1 1 -1 0 -2 
1 -1 1 -1 3 -1 0 -2 2 -1 6 -1 2 -1 1 -1 
1 -1 1 -1 0 -1 1 -2 0 -1 2 -1 1 -1 1 -1 
2 -1 5 -1 0 -2 7 -2 0 -1 1 -1 1 -1 0 -1 
6 -1 1 -1 2 -1 3 -1 5 -2 2 -1 1 -1 1 -1 
1 -1 1 -1 1 -1 2 -1 1 -2 3 -1 3 -1 5 -1 
3 -1 2 -1 2 -1 4246 2095 100 MP stroke
7 -1 8 -1 0 -2 1 -1 1 -1 0 -2 2 -1 1 -1 
2 -1 2 -1 0 -2 3 -1 2 -1 1 -1 1 -1 0 -1 
1 -1 9 -1 0 -2 1 -1 0 -2 3 -1 1 -1 0 -1 
2 -1 4 -1 7 -2 4 -1 3 -1 2 -1 0 -1 1 -1 
1 -1 2 -1 1 -1 13 -2 8 -1 4 -1 10 -1 3 -1 
1 -1 3 -1 0 -1 2 -2 7 -1 1 -1 5 -1 9 -1 
4 -1 14 -1 1 -1 1 -1 2 -2 3 -1 2 -1 7 -1 
2 -1 1 -1 17 -1 1 -1 1 -1 2 -2 9 -1 8 -1 
11 -1 4021 2170 66 MP stroke
c9
23 -14 23 -15 22 -15 23 -15 22 -15 23 -15 23 -15 22 -15 
23 -15 22 -15 23 -14 23 -15 22 -15 23 -15 22 -15 23 -15 
23 -15 22 -15 23 -15 22 -14 23 -15 23 -15 22 -15 23 -15 
22 -15 23 -15 23 -15 22 -15 23 -15 22 -15 23 -14 23 -15 
22 -15 23 -15 22 -15 23 -15 23 -15 22 -15 23 -15 22 -15 
23 -14 23 -15 22 -15 23 -15 22 -15 23 -15 23 -15 22 -15 
23 -15 22 -15 23 -14 23 -15 22 -15 23 -15 22 -15 23 -15 
23 -15 22 -15 23 -15 22 -15 23 -14 23 -15 22 -15 23 -15 
22 -15 23 -15 23 -15 22 -15 23 -15 22 -15 23 -14 23 -15 
22 -15 23 -15 22 -15 23 -15 23 -15 22 -15 23 -15 22 -15 
23 -14 23 -15 22 -15 23 -15 22 -15 23 -15 23 -15 22 -15 
23 -15 22 -15 23 -14 23 -15 22 -15 23 -15 22 -15 23 -15 
23 -15 22 -15 23 -15 4018 2156 100 MP stroke
22 -15 3996 2171 2 MP stroke
12 w
c10
6 -4 22 -15 23 -14 23 -15 22 -15 23 -15 22 -15 23 -15 
23 -15 22 -15 23 -15 22 -15 23 -14 23 -15 22 -15 23 -15 
22 -15 23 -15 23 -15 22 -15 23 -15 22 -15 23 -14 23 -15 
22 -15 23 -15 22 -15 23 -15 23 -15 22 -15 23 -15 22 -15 
23 -14 23 -15 22 -15 23 -15 22 -15 23 -15 23 -15 22 -15 
23 -15 22 -15 23 -14 23 -15 22 -15 23 -15 22 -15 23 -15 
23 -15 22 -15 23 -15 22 -15 23 -14 23 -15 22 -15 23 -15 
22 -15 23 -15 23 -15 22 -15 23 -15 22 -15 23 -14 23 -15 
22 -15 23 -15 22 -15 23 -15 23 -15 22 -15 23 -15 22 -15 
23 -14 23 -15 22 -15 23 -15 22 -15 23 -15 23 -15 22 -15 
23 -15 22 -15 23 -14 23 -15 22 -15 23 -15 22 -15 23 -15 
23 -15 22 -15 23 -15 22 -15 23 -14 23 -15 22 -15 23 -15 
22 -15 3996 2115 98 MP stroke
3996 2226 PD
23 -15 23 -15 22 -15 23 -15 22 -14 23 -15 23 -15 22 -15 
23 -15 22 -15 23 -15 23 -15 22 -15 23 -15 22 -14 23 -15 
23 -15 22 -15 23 -15 22 -15 23 -15 23 -15 22 -15 23 -15 
22 -14 23 -15 23 -15 22 -15 23 -15 22 -15 23 -15 23 -15 
22 -15 23 -15 22 -14 23 -15 23 -15 22 -15 23 -15 22 -15 
23 -15 23 -15 22 -15 23 -15 22 -14 23 -15 23 -15 22 -15 
23 -15 22 -15 23 -15 23 -15 22 -15 23 -15 22 -14 23 -15 
23 -15 22 -15 23 -15 22 -15 23 -15 23 -15 22 -15 23 -15 
22 -14 23 -15 23 -15 22 -15 23 -15 22 -15 23 -15 23 -15 
22 -15 23 -15 22 -14 23 -15 23 -15 22 -15 23 -15 22 -15 
23 -15 23 -15 22 -15 23 -15 22 -14 23 -15 23 -15 22 -15 
23 -15 22 -15 23 -15 23 -15 22 -15 23 -15 22 -14 23 -15 
8 -6 4078 2172 98 MP stroke
gr

12 w
c10
0 sg
4600  545 mt 
(Hippocampal) s
6 w

end

eplot
%%EndObject

epage
end

showpage

%%Trailer
%%BoundingBox:    90   589   543   746
%%Pages: 001
%%EOF
