%!PS-Adobe-2.0 
%%Creator: MATLAB, The Mathworks, Inc. Version 7.7.0.471 (R2008b). Operating System: Linux 2.6.29.6-server-2mnb #1 SMP Sun Aug 16 23:47:22 EDT 2009 i686.
%%Title: ./replayprop.ps
%%CreationDate: 01/24/2010  20:53:57
%%DocumentNeededFonts: Helvetica-Bold
%%+ Helvetica
%%DocumentProcessColors: Cyan Magenta Yellow Black
%%Pages: (atend)
%%BoundingBox: (atend)
%%EndComments

%%BeginProlog
% MathWorks dictionary
/MathWorks 160 dict begin
% definition operators
/bdef {bind def} bind def
/ldef {load def} bind def
/xdef {exch def} bdef
/xstore {exch store} bdef
% operator abbreviations
/c  /clip ldef
/cc /concat ldef
/cp /closepath ldef
/gr /grestore ldef
/gs /gsave ldef
/mt /moveto ldef
/np /newpath ldef
/cm /currentmatrix ldef
/sm /setmatrix ldef
/rm /rmoveto ldef
/rl /rlineto ldef
/s {show newpath} bdef
/sc {setcmykcolor} bdef
/sr /setrgbcolor ldef
/sg /setgray ldef
/w /setlinewidth ldef
/j /setlinejoin ldef
/cap /setlinecap ldef
/rc {rectclip} bdef
/rf {rectfill} bdef
% page state control
/pgsv () def
/bpage {/pgsv save def} bdef
/epage {pgsv restore} bdef
/bplot /gsave ldef
/eplot {stroke grestore} bdef
% orientation switch
/portraitMode 0 def /landscapeMode 1 def /rotateMode 2 def
% coordinate system mappings
/dpi2point 0 def
% font control
/FontSize 0 def
/FMS {/FontSize xstore findfont [FontSize 0 0 FontSize neg 0 0]
  makefont setfont} bdef
/reencode {exch dup where {pop load} {pop StandardEncoding} ifelse
  exch dup 3 1 roll findfont dup length dict begin
  { 1 index /FID ne {def}{pop pop} ifelse } forall
  /Encoding exch def currentdict end definefont pop} bdef
/isroman {findfont /CharStrings get /Agrave known} bdef
/FMSR {3 1 roll 1 index dup isroman {reencode} {pop pop} ifelse
  exch FMS} bdef
/csm {1 dpi2point div -1 dpi2point div scale neg translate
 dup landscapeMode eq {pop -90 rotate}
  {rotateMode eq {90 rotate} if} ifelse} bdef
% line types: solid, dotted, dashed, dotdash
/SO { [] 0 setdash } bdef
/DO { [.5 dpi2point mul 4 dpi2point mul] 0 setdash } bdef
/DA { [6 dpi2point mul] 0 setdash } bdef
/DD { [.5 dpi2point mul 4 dpi2point mul 6 dpi2point mul 4
  dpi2point mul] 0 setdash } bdef
% macros for lines and objects
/L {lineto stroke} bdef
/MP {3 1 roll moveto 1 sub {rlineto} repeat} bdef
/AP {{rlineto} repeat} bdef
/PDlw -1 def
/W {/PDlw currentlinewidth def setlinewidth} def
/PP {closepath eofill} bdef
/DP {closepath stroke} bdef
/MR {4 -2 roll moveto dup  0 exch rlineto exch 0 rlineto
  neg 0 exch rlineto closepath} bdef
/FR {MR stroke} bdef
/PR {MR fill} bdef
/L1i {{currentfile picstr readhexstring pop} image} bdef
/tMatrix matrix def
/MakeOval {newpath tMatrix currentmatrix pop translate scale
0 0 1 0 360 arc tMatrix setmatrix} bdef
/FO {MakeOval stroke} bdef
/PO {MakeOval fill} bdef
/PD {currentlinewidth 2 div 0 360 arc fill
   PDlw -1 eq not {PDlw w /PDlw -1 def} if} def
/FA {newpath tMatrix currentmatrix pop translate scale
  0 0 1 5 -2 roll arc tMatrix setmatrix stroke} bdef
/PA {newpath tMatrix currentmatrix pop	translate 0 0 moveto scale
  0 0 1 5 -2 roll arc closepath tMatrix setmatrix fill} bdef
/FAn {newpath tMatrix currentmatrix pop translate scale
  0 0 1 5 -2 roll arcn tMatrix setmatrix stroke} bdef
/PAn {newpath tMatrix currentmatrix pop translate 0 0 moveto scale
  0 0 1 5 -2 roll arcn closepath tMatrix setmatrix fill} bdef
/vradius 0 def /hradius 0 def /lry 0 def
/lrx 0 def /uly 0 def /ulx 0 def /rad 0 def
/MRR {/vradius xdef /hradius xdef /lry xdef /lrx xdef /uly xdef
  /ulx xdef newpath tMatrix currentmatrix pop ulx hradius add uly
  vradius add translate hradius vradius scale 0 0 1 180 270 arc 
  tMatrix setmatrix lrx hradius sub uly vradius add translate
  hradius vradius scale 0 0 1 270 360 arc tMatrix setmatrix
  lrx hradius sub lry vradius sub translate hradius vradius scale
  0 0 1 0 90 arc tMatrix setmatrix ulx hradius add lry vradius sub
  translate hradius vradius scale 0 0 1 90 180 arc tMatrix setmatrix
  closepath} bdef
/FRR {MRR stroke } bdef
/PRR {MRR fill } bdef
/MlrRR {/lry xdef /lrx xdef /uly xdef /ulx xdef /rad lry uly sub 2 div def
  newpath tMatrix currentmatrix pop ulx rad add uly rad add translate
  rad rad scale 0 0 1 90 270 arc tMatrix setmatrix lrx rad sub lry rad
  sub translate rad rad scale 0 0 1 270 90 arc tMatrix setmatrix
  closepath} bdef
/FlrRR {MlrRR stroke } bdef
/PlrRR {MlrRR fill } bdef
/MtbRR {/lry xdef /lrx xdef /uly xdef /ulx xdef /rad lrx ulx sub 2 div def
  newpath tMatrix currentmatrix pop ulx rad add uly rad add translate
  rad rad scale 0 0 1 180 360 arc tMatrix setmatrix lrx rad sub lry rad
  sub translate rad rad scale 0 0 1 0 180 arc tMatrix setmatrix
  closepath} bdef
/FtbRR {MtbRR stroke } bdef
/PtbRR {MtbRR fill } bdef
/stri 6 array def /dtri 6 array def
/smat 6 array def /dmat 6 array def
/tmat1 6 array def /tmat2 6 array def /dif 3 array def
/asub {/ind2 exch def /ind1 exch def dup dup
  ind1 get exch ind2 get sub exch } bdef
/tri_to_matrix {
  2 0 asub 3 1 asub 4 0 asub 5 1 asub
  dup 0 get exch 1 get 7 -1 roll astore } bdef
/compute_transform {
  dmat dtri tri_to_matrix tmat1 invertmatrix 
  smat stri tri_to_matrix tmat2 concatmatrix } bdef
/ds {stri astore pop} bdef
/dt {dtri astore pop} bdef
/db {2 copy /cols xdef /rows xdef mul dup string
  currentfile exch readhexstring pop
  /bmap xdef pop pop} bdef
/it {gs np dtri aload pop moveto lineto lineto cp c
  cols rows 8 compute_transform 
  {bmap} image gr}bdef
/il {newpath moveto lineto stroke}bdef
currentdict end def
%%EndProlog

%%BeginSetup
MathWorks begin

0 cap

end
%%EndSetup

%%Page: 1 1
%%BeginPageSetup
%%PageBoundingBox:    51   207   543   591
MathWorks begin
bpage
%%EndPageSetup

%%BeginObject: obj1
bplot

/dpi2point 12 def
portraitMode 0216 7344 csm

  399   244  5910  4605 MR c np
1045 dict begin %Colortable dictionary
/c0 { 0.000000 0.000000 0.000000 sr} bdef
/c1 { 1.000000 1.000000 1.000000 sr} bdef
/c2 { 0.900000 0.000000 0.000000 sr} bdef
/c3 { 0.000000 0.820000 0.000000 sr} bdef
/c4 { 0.000000 0.000000 0.800000 sr} bdef
/c5 { 0.910000 0.820000 0.320000 sr} bdef
/c6 { 1.000000 0.260000 0.820000 sr} bdef
/c7 { 0.000000 0.820000 0.820000 sr} bdef
c0
1 j
1 sg
   0    0 6917 5186 PR
6 w
0 4226 2315 0 0 -4226 899 4615 4 MP
PP
-2315 0 0 4226 2315 0 0 -4226 899 4615 5 MP stroke
4 w
DO
SO
6 w
0 sg
 899 4615 mt 3214 4615 L
 899 4615 mt  899  389 L
1477 4615 mt 1477 4572 L
%%IncludeResource: font Helvetica-Bold
/Helvetica-Bold /ISOLatin1Encoding 168 FMSR

1351 4810 mt 
(E1 ) s
2056 4615 mt 2056 4572 L
1926 4810 mt 
(R a) s
2635 4615 mt 2635 4572 L
2500 4810 mt 
(R q) s
 899 4615 mt  941 4615 L
 771 4679 mt 
(0) s
 899 4192 mt  941 4192 L
 771 4256 mt 
(5) s
 899 3769 mt  941 3769 L
 678 3833 mt 
(10) s
 899 3347 mt  941 3347 L
 678 3411 mt 
(15) s
 899 2924 mt  941 2924 L
 678 2988 mt 
(20) s
 899 2502 mt  941 2502 L
 678 2566 mt 
(25) s
 899 2079 mt  941 2079 L
 678 2143 mt 
(30) s
 899 1656 mt  941 1656 L
 678 1720 mt 
(35) s
 899 1234 mt  941 1234 L
 678 1298 mt 
(40) s
 899  811 mt  941  811 L
 678  875 mt 
(45) s
 899  389 mt  941  389 L
 678  453 mt 
(50) s
gs 899 389 2316 4227 MR c np
0 3978 463 0 0 -3978 1246 4615 4 MP
PP
-463 0 0 3978 463 0 0 -3978 1246 4615 5 MP stroke
0 3731 463 0 0 -3731 1825 4615 4 MP
PP
-463 0 0 3731 463 0 0 -3731 1825 4615 5 MP stroke
0 3014 463 0 0 -3014 2403 4615 4 MP
PP
-463 0 0 3014 463 0 0 -3014 2403 4615 5 MP stroke
12 w
2315 0 899 4615 2 MP stroke
gr

12 w
 585 3260 mt  -90 rotate
(Percent Significant) s
90 rotate
6 w
1 sg
0 4226 2315 0 0 -4226 3944 4615 4 MP
PP
-2315 0 0 4226 2315 0 0 -4226 3944 4615 5 MP stroke
4 w
DO
SO
6 w
0 sg
3944 4615 mt 6259 4615 L
3944 4615 mt 3944  389 L
4522 4615 mt 4522 4572 L
4420 4810 mt 
(E1) s
5101 4615 mt 5101 4572 L
4999 4810 mt 
(E2) s
3944 4615 mt 3986 4615 L
3816 4679 mt 
(0) s
3944 4192 mt 3986 4192 L
3816 4256 mt 
(5) s
3944 3769 mt 3986 3769 L
3723 3833 mt 
(10) s
3944 3347 mt 3986 3347 L
3723 3411 mt 
(15) s
3944 2924 mt 3986 2924 L
3723 2988 mt 
(20) s
3944 2502 mt 3986 2502 L
3723 2566 mt 
(25) s
3944 2079 mt 3986 2079 L
3723 2143 mt 
(30) s
3944 1656 mt 3986 1656 L
3723 1720 mt 
(35) s
3944 1234 mt 3986 1234 L
3723 1298 mt 
(40) s
3944  811 mt 3986  811 L
3723  875 mt 
(45) s
3944  389 mt 3986  389 L
3723  453 mt 
(50) s
gs 3944 389 2316 4227 MR c np
0 3481 463 0 0 -3481 4291 4615 4 MP
PP
-463 0 0 3481 463 0 0 -3481 4291 4615 5 MP stroke
0 3765 463 0 0 -3765 4870 4615 4 MP
PP
-463 0 0 3765 463 0 0 -3765 4870 4615 5 MP stroke
12 w
2315 0 3944 4615 2 MP stroke
6 w
gr


end %%Color Dict

eplot
%%EndObject

epage
end

showpage

%%Trailer
%%BoundingBox:    51   207   543   591
%%Pages: 001
%%EOF
