%!PS-Adobe-2.0 
%%Creator: MATLAB, The Mathworks, Inc.
%%Title: /home/loren/Grants/BRP2001/adaptivesuzuki.ps
%%CreationDate: 01/20/2002  13:56:06
%%DocumentNeededFonts: Helvetica-Bold
%%+ Helvetica
%%DocumentProcessColors: Cyan Magenta Yellow Black
%%Extensions: CMYK
%%Pages: (atend)
%%BoundingBox: (atend)
%%EndComments

%%BeginProlog
% MathWorks dictionary
/MathWorks 160 dict begin
% definition operators
/bdef {bind def} bind def
/ldef {load def} bind def
/xdef {exch def} bdef
/xstore {exch store} bdef
% operator abbreviations
/c  /clip ldef
/cc /concat ldef
/cp /closepath ldef
/gr /grestore ldef
/gs /gsave ldef
/mt /moveto ldef
/np /newpath ldef
/cm /currentmatrix ldef
/sm /setmatrix ldef
/rm /rmoveto ldef
/rl /rlineto ldef
/s /show ldef
/sc {setcmykcolor} bdef
/sr /setrgbcolor ldef
/sg /setgray ldef
/w /setlinewidth ldef
/j /setlinejoin ldef
/cap /setlinecap ldef
/rc {rectclip} bdef
/rf {rectfill} bdef
% page state control
/pgsv () def
/bpage {/pgsv save def} bdef
/epage {pgsv restore} bdef
/bplot /gsave ldef
/eplot {stroke grestore} bdef
% orientation switch
/portraitMode 0 def /landscapeMode 1 def /rotateMode 2 def
% coordinate system mappings
/dpi2point 0 def
% font control
/FontSize 0 def
/FMS {/FontSize xstore findfont [FontSize 0 0 FontSize neg 0 0]
  makefont setfont} bdef
/reencode {exch dup where {pop load} {pop StandardEncoding} ifelse
  exch dup 3 1 roll findfont dup length dict begin
  { 1 index /FID ne {def}{pop pop} ifelse } forall
  /Encoding exch def currentdict end definefont pop} bdef
/isroman {findfont /CharStrings get /Agrave known} bdef
/FMSR {3 1 roll 1 index dup isroman {reencode} {pop pop} ifelse
  exch FMS} bdef
/csm {1 dpi2point div -1 dpi2point div scale neg translate
 dup landscapeMode eq {pop -90 rotate}
  {rotateMode eq {90 rotate} if} ifelse} bdef
% line types: solid, dotted, dashed, dotdash
/SO { [] 0 setdash } bdef
/DO { [.5 dpi2point mul 4 dpi2point mul] 0 setdash } bdef
/DA { [6 dpi2point mul] 0 setdash } bdef
/DD { [.5 dpi2point mul 4 dpi2point mul 6 dpi2point mul 4
  dpi2point mul] 0 setdash } bdef
% macros for lines and objects
/L {lineto stroke} bdef
/MP {3 1 roll moveto 1 sub {rlineto} repeat} bdef
/AP {{rlineto} repeat} bdef
/PDlw -1 def
/W {/PDlw currentlinewidth def setlinewidth} def
/PP {closepath eofill} bdef
/DP {closepath stroke} bdef
/MR {4 -2 roll moveto dup  0 exch rlineto exch 0 rlineto
  neg 0 exch rlineto closepath} bdef
/FR {MR stroke} bdef
/PR {MR fill} bdef
/L1i {{currentfile picstr readhexstring pop} image} bdef
/tMatrix matrix def
/MakeOval {newpath tMatrix currentmatrix pop translate scale
0 0 1 0 360 arc tMatrix setmatrix} bdef
/FO {MakeOval stroke} bdef
/PO {MakeOval fill} bdef
/PD {currentlinecap 1 cap 3 1 roll 2 copy mt lineto stroke
   cap PDlw -1 eq not {PDlw w /PDlw -1 def} if} def
/FA {newpath tMatrix currentmatrix pop translate scale
  0 0 1 5 -2 roll arc tMatrix setmatrix stroke} bdef
/PA {newpath tMatrix currentmatrix pop	translate 0 0 moveto scale
  0 0 1 5 -2 roll arc closepath tMatrix setmatrix fill} bdef
/FAn {newpath tMatrix currentmatrix pop translate scale
  0 0 1 5 -2 roll arcn tMatrix setmatrix stroke} bdef
/PAn {newpath tMatrix currentmatrix pop translate 0 0 moveto scale
  0 0 1 5 -2 roll arcn closepath tMatrix setmatrix fill} bdef
/vradius 0 def /hradius 0 def /lry 0 def
/lrx 0 def /uly 0 def /ulx 0 def /rad 0 def
/MRR {/vradius xdef /hradius xdef /lry xdef /lrx xdef /uly xdef
  /ulx xdef newpath tMatrix currentmatrix pop ulx hradius add uly
  vradius add translate hradius vradius scale 0 0 1 180 270 arc 
  tMatrix setmatrix lrx hradius sub uly vradius add translate
  hradius vradius scale 0 0 1 270 360 arc tMatrix setmatrix
  lrx hradius sub lry vradius sub translate hradius vradius scale
  0 0 1 0 90 arc tMatrix setmatrix ulx hradius add lry vradius sub
  translate hradius vradius scale 0 0 1 90 180 arc tMatrix setmatrix
  closepath} bdef
/FRR {MRR stroke } bdef
/PRR {MRR fill } bdef
/MlrRR {/lry xdef /lrx xdef /uly xdef /ulx xdef /rad lry uly sub 2 div def
  newpath tMatrix currentmatrix pop ulx rad add uly rad add translate
  rad rad scale 0 0 1 90 270 arc tMatrix setmatrix lrx rad sub lry rad
  sub translate rad rad scale 0 0 1 270 90 arc tMatrix setmatrix
  closepath} bdef
/FlrRR {MlrRR stroke } bdef
/PlrRR {MlrRR fill } bdef
/MtbRR {/lry xdef /lrx xdef /uly xdef /ulx xdef /rad lrx ulx sub 2 div def
  newpath tMatrix currentmatrix pop ulx rad add uly rad add translate
  rad rad scale 0 0 1 180 360 arc tMatrix setmatrix lrx rad sub lry rad
  sub translate rad rad scale 0 0 1 0 180 arc tMatrix setmatrix
  closepath} bdef
/FtbRR {MtbRR stroke } bdef
/PtbRR {MtbRR fill } bdef
/stri 6 array def /dtri 6 array def
/smat 6 array def /dmat 6 array def
/tmat1 6 array def /tmat2 6 array def /dif 3 array def
/asub {/ind2 exch def /ind1 exch def dup dup
  ind1 get exch ind2 get sub exch } bdef
/tri_to_matrix {
  2 0 asub 3 1 asub 4 0 asub 5 1 asub
  dup 0 get exch 1 get 7 -1 roll astore } bdef
/compute_transform {
  dmat dtri tri_to_matrix tmat1 invertmatrix 
  smat stri tri_to_matrix tmat2 concatmatrix } bdef
/ds {stri astore pop} bdef
/dt {dtri astore pop} bdef
/db {2 copy /cols xdef /rows xdef mul dup 3 mul string
  currentfile exch readhexstring pop
  dup 0 3 index getinterval /rbmap xdef
  dup 2 index dup getinterval /gbmap xdef
  1 index dup 2 mul exch getinterval /bbmap xdef pop pop}bdef
/it {gs np dtri aload pop moveto lineto lineto cp c
  cols rows 8 compute_transform 
  rbmap gbmap bbmap true 3 colorimage gr}bdef
/il {newpath moveto lineto stroke}bdef
currentdict end def
%%EndProlog

%%BeginSetup
MathWorks begin

0 cap

end
%%EndSetup

%%Page: 1 1
%%BeginPageSetup
%%PageBoundingBox:    48   394   543   721
MathWorks begin
bpage
%%EndPageSetup

%%BeginObject: obj1
bplot

/dpi2point 12 def
portraitMode 0216 9288 csm

  363   632  5944  3921 MR c np
1056 dict begin %Colortable dictionary
/c0 { 0 0 0 sr} bdef
/c1 { 1 1 1 sr} bdef
/c2 { 1 0 0 sr} bdef
/c3 { 0 1 0 sr} bdef
/c4 { 0 0 1 sr} bdef
/c5 { 1 1 0 sr} bdef
/c6 { 1 0 1 sr} bdef
/c7 { 0 1 1 sr} bdef
c0
1 j
1 sg
   0    0 6914 9078 PR
18 w
0 1490 2260 0 0 -1490 899 2171 4 MP
PP
-2260 0 0 1490 2260 0 0 -1490 899 2171 5 MP stroke
12 w
DO
SO
18 w
0 sg
 899 2171 mt 3159 2171 L
 899 2171 mt  899  681 L
 899 2171 mt  899 2148 L
%%IncludeResource: font Helvetica-Bold
/Helvetica-Bold /ISOLatin1Encoding 168 FMSR

 853 2366 mt 
(0) s
1238 2171 mt 1238 2148 L
1098 2366 mt 
(300) s
1803 2171 mt 1803 2148 L
1663 2366 mt 
(800) s
2594 2171 mt 2594 2148 L
2408 2366 mt 
(1500) s
 899 2171 mt  921 2171 L
 771 2235 mt 
(0) s
 899 1550 mt  921 1550 L
 678 1614 mt 
(50) s
 899  929 mt  921  929 L
 584  993 mt 
(100) s
gs 899 681 2261 1491 MR c np
12 w
/c8 { 0.000000 0.281250 1.000000 sr} bdef
c8
4 5 11 20 12 26 11 26 11 19 12 7 11 -8 11 -19 
12 -24 11 -21 11 -12 11 2 12 12 11 18 11 19 12 16 
11 9 11 6 12 3 11 1 11 -3 11 -6 899 2076 23 MP stroke
10 2 12 0 11 0 11 0 12 0 11 0 11 0 12 0 
11 0 11 0 11 0 12 0 11 0 11 0 12 0 11 0 
11 0 12 0 11 0 11 0 11 0 12 0 11 0 11 0 
12 0 11 0 11 0 12 0 11 0 11 0 11 0 12 0 
11 0 11 0 12 0 11 -1 11 0 12 0 11 0 11 1 
11 0 12 1 11 0 11 0 12 -2 2 -1 1190 2172 47 MP stroke
8 11 12 20 11 19 11 17 12 8 11 0 11 -6 12 -9 
11 -11 11 -10 11 -7 12 -9 11 -8 11 -8 12 -6 1 -1 
1756 2172 17 MP stroke
10 13 12 16 11 13 11 8 12 8 11 7 11 6 12 1 
11 -3 11 -10 11 -16 12 -17 11 -17 8 -9 1998 2172 15 MP stroke
10 11 12 17 11 19 11 17 12 15 11 19 11 19 11 16 
12 7 11 -5 11 -21 12 -33 11 -36 11 -31 8 -14 2179 2172 16 MP stroke
0 1 12 22 11 27 11 26 11 18 12 10 11 8 11 3 
12 0 11 -4 11 -10 12 -21 11 -26 11 -27 11 -21 7 -6 
2361 2172 17 MP stroke
11 -3 11 -13 12 -18 11 -14 11 -4 12 15 11 35 11 44 
11 43 12 31 11 11 11 -14 12 -29 11 -37 11 -34 12 -24 
11 -10 11 -5 11 1 12 4 11 6 11 8 12 16 11 19 
11 18 12 13 11 3 11 -12 11 -22 12 -26 11 -24 11 -13 
12 2 11 17 11 23 12 22 11 14 11 -2 11 -20 12 -31 
11 -34 11 -27 12 -15 11 5 11 20 12 25 11 23 11 13 
11 -4 12 -20 11 -28 11 -29 9 -17 2551 2172 54 MP stroke
/c9 { 0.000000 0.867188 1.000000 sr} bdef
c9
6 6 11 16 11 18 11 17 12 16 11 19 11 22 12 21 
11 14 11 5 12 -11 11 -28 11 -36 11 -33 12 -20 11 3 
11 29 12 44 11 48 11 42 12 23 11 2 11 -11 11 -19 
12 -20 11 -16 11 -9 12 -11 11 -10 11 -4 12 4 11 19 
11 42 11 57 12 61 11 51 11 30 12 0 11 -21 11 -33 
12 -37 11 -31 11 -18 11 -12 12 -8 11 -7 11 -7 12 -9 
11 -8 11 -9 12 -8 11 -11 11 -13 11 -23 12 -38 11 -40 
11 -30 12 -7 11 32 11 88 12 121 11 125 11 100 11 43 
899 1652 65 MP stroke
4 2 11 3 11 3 11 0 12 0 11 -1 11 -1 12 -1 
11 0 11 0 12 1 11 1 11 0 11 0 12 -3 6 -4 
1672 2172 17 MP stroke
6 1 11 24 11 36 11 39 12 33 11 18 11 5 12 -1 
11 -4 11 -3 12 3 11 12 11 19 11 20 12 17 11 7 
11 -8 12 -25 11 -33 11 -35 12 -31 11 -20 11 -9 11 -2 
12 2 11 2 11 0 12 -3 11 -2 11 -3 12 -4 11 -5 
11 -6 11 -10 12 -11 11 -11 11 -9 6 -3 1876 2172 39 MP stroke
11 -21 11 -31 12 -35 11 -32 11 -22 12 -6 11 9 11 16 
11 19 12 16 11 9 11 3 12 -1 11 -2 11 -2 12 -1 
11 2 11 1 11 3 12 3 11 4 11 5 12 8 11 9 
11 10 12 7 11 3 11 0 11 -4 12 -5 11 -6 11 -4 
12 -4 11 -5 11 -5 12 -3 11 2 11 9 11 22 12 28 
11 30 11 23 12 10 11 -9 11 -23 12 -30 11 -27 11 -16 
11 5 12 26 11 36 11 35 12 22 11 -3 11 -35 12 -56 
11 -63 11 -56 11 -35 12 -7 11 12 11 25 12 28 11 24 
11 16 12 17 11 17 11 12 11 5 12 -7 11 -26 11 -42 
12 -47 11 -41 11 -23 2300 2172 76 MP stroke
/c10 { 1.000000 0.769531 0.000000 sr} bdef
c10
9 11 11 28 11 37 12 38 11 31 11 20 12 13 11 8 
11 6 11 2 12 1 11 -3 11 -6 12 -9 11 -9 11 -8 
12 -6 11 -5 11 -6 11 -6 12 -6 11 -10 11 -14 12 -17 
11 -16 11 -10 12 -2 11 11 11 23 11 26 12 25 11 16 
11 5 12 -3 11 -9 11 -12 12 -15 11 -15 11 -21 11 -25 
12 -26 11 -22 11 -14 12 -5 11 1 11 6 12 9 11 13 
11 15 11 23 12 26 11 27 11 23 12 17 11 12 11 10 
12 5 11 1 11 -4 11 -18 12 -40 11 -45 11 -33 12 -6 
11 41 11 108 12 148 11 152 11 121 11 54 899 1505 71 MP stroke
8 15 11 32 11 32 12 23 11 5 11 -15 12 -29 11 -31 
11 -25 8 -7 1693 2172 11 MP stroke
11 29 11 36 12 37 11 35 11 26 12 16 11 3 11 -3 
11 -4 12 1 11 10 11 13 12 15 11 21 11 30 12 43 
11 63 11 88 11 97 12 90 11 68 11 30 12 2 11 -19 
11 -32 12 -39 11 -39 11 -50 11 -63 12 -65 11 -58 11 -39 
12 -10 11 13 11 27 12 31 11 23 11 6 11 -3 12 -8 
11 -15 11 -22 12 -30 11 -48 11 -68 12 -72 11 -62 11 -35 
11 7 12 53 11 78 11 80 12 58 11 14 11 -33 12 -63 
11 -78 11 -76 11 -58 12 -33 11 -22 11 -14 12 -9 11 -8 
11 -8 12 -5 11 -1 11 -1 11 -1 12 -4 11 -13 11 -20 
12 -19 11 -10 11 8 12 38 11 70 11 86 11 82 12 59 
11 19 11 -25 12 -53 11 -64 11 -58 12 -35 11 -5 11 15 
11 23 12 22 11 9 11 -13 12 -30 11 -40 11 -43 12 -39 
11 -28 11 -17 11 -11 2029 2013 100 MP stroke
12 -8 11 -8 11 -10 12 -15 11 -19 11 -20 12 -17 11 -11 
11 -2 11 12 12 19 11 21 11 14 12 2 11 -16 11 -29 
12 -34 11 -30 5 -8 1820 2172 20 MP stroke
/c11 { 0.792969 0.000000 0.000000 sr} bdef
c11
8 16 11 33 11 33 12 26 11 10 11 -5 12 -12 11 -16 
11 -14 12 -8 11 0 11 3 11 6 12 6 11 5 11 2 
12 1 11 1 11 2 12 2 11 4 11 5 11 5 12 7 
11 10 11 13 12 22 11 30 11 33 12 29 11 19 11 1 
11 -18 12 -28 11 -31 11 -26 12 -11 11 5 11 17 12 21 
11 16 11 4 11 -21 12 -48 11 -57 11 -45 12 -14 11 39 
11 111 12 155 11 161 11 130 11 63 899 1480 54 MP stroke
11 -1 11 -19 12 -27 11 -23 11 -12 12 10 11 30 11 39 
11 40 12 30 11 11 11 -9 12 -23 11 -28 11 -27 12 -18 
11 -7 11 -2 11 2 12 6 11 8 11 10 12 19 11 23 
11 22 12 14 11 1 11 -21 11 -39 12 -42 11 -32 11 -11 
12 23 11 53 11 68 12 72 11 61 11 39 11 24 12 15 
11 7 11 2 12 -2 11 -5 11 -9 12 -14 11 -21 11 -27 
11 -38 12 -55 11 -65 11 -62 12 -48 11 -24 11 4 12 24 
11 33 11 33 11 22 12 7 11 0 11 -5 12 -5 11 0 
11 5 12 5 11 7 11 12 11 21 12 35 11 60 11 80 
12 86 11 77 11 55 12 21 11 -8 11 -25 11 -29 12 -23 
11 -5 11 9 12 17 11 19 11 16 12 8 11 -3 11 -9 
11 -13 12 -16 11 -15 11 -14 12 -15 11 -17 11 -16 12 -14 
11 -11 11 -9 11 -9 2029 1646 100 MP stroke
12 -5 11 0 11 8 12 21 11 34 11 40 12 39 11 34 
11 21 11 19 12 16 11 7 11 -5 12 -21 11 -48 11 -72 
12 -81 11 -75 11 -55 11 -23 12 4 11 19 11 21 12 11 
11 -11 11 -34 12 -47 11 -52 11 -46 11 -33 12 -14 11 -3 
11 4 12 7 11 4 11 -2 12 -1 11 -1 11 -4 11 -9 
12 -18 11 -32 11 -43 12 -46 11 -38 8 -16 1512 2172 47 MP stroke
gr

12 w
c11
0 sg
 529 1835 mt  -90 rotate
(Firing rate) s
90 rotate
gs 899 681 2261 1491 MR c np
0 -1490 1238 2171 2 MP stroke
0 -1490 1803 2171 2 MP stroke
0 -1490 2594 2171 2 MP stroke
gr

1634 2544 mt 
(Time \(ms\)) s
18 w
6 w
1 sg
0 591 1094 0 0 -591 959 1332 4 MP
PP
-1094 0 0 591 1094 0 0 -591 959 1332 5 MP stroke
4 w
DO
SO
6 w
0 sg
 959 1332 mt 2053 1332 L
 959  741 mt 2053  741 L
 959 1332 mt  959  741 L
2053 1332 mt 2053  741 L
 959 1332 mt 2053 1332 L
 959 1332 mt  959  741 L
 959 1332 mt 2053 1332 L
 959  741 mt 2053  741 L
 959 1332 mt  959  741 L
2053 1332 mt 2053  741 L
%%IncludeResource: font Helvetica-Bold
/Helvetica-Bold /ISOLatin1Encoding 120 FMSR

1292  867 mt 
(0% correct) s
1292 1009 mt 
(20% correct) s
1292 1151 mt 
(100% \(early\)) s
1292 1293 mt 
(100% \(late\)) s
gs 959 741 1095 592 MR c np
12 w
c8
200 0 1025 825 2 MP stroke
c9
200 0 1025 967 2 MP stroke
c10
200 0 1025 1109 2 MP stroke
c11
200 0 1025 1252 2 MP stroke
6 w
gr

c11
18 w
1 sg
0 1490 2260 0 0 -1490 899 4140 4 MP
PP
-2260 0 0 1490 2260 0 0 -1490 899 4140 5 MP stroke
12 w
DO
SO
18 w
0 sg
 899 4140 mt 3159 4140 L
 899 4140 mt  899 2650 L
 899 4140 mt  899 4117 L
%%IncludeResource: font Helvetica-Bold
/Helvetica-Bold /ISOLatin1Encoding 168 FMSR

 853 4335 mt 
(0) s
1238 4140 mt 1238 4117 L
1098 4335 mt 
(300) s
1803 4140 mt 1803 4117 L
1663 4335 mt 
(800) s
2594 4140 mt 2594 4117 L
2408 4335 mt 
(1500) s
 899 4140 mt  921 4140 L
 771 4204 mt 
(0) s
 899 3519 mt  921 3519 L
 678 3583 mt 
(50) s
 899 2898 mt  921 2898 L
 584 2962 mt 
(100) s
gs 899 2650 2261 1491 MR c np
12 w
c8
56 0 57 249 56 -249 57 497 56 -248 57 0 56 248 57 -497 
56 497 57 -497 56 249 57 -249 56 0 57 249 56 0 57 -249 
56 249 57 0 56 -249 57 249 56 -249 57 0 56 0 57 249 
56 -249 57 0 56 0 57 0 56 0 57 0 56 0 57 0 
56 0 57 0 56 0 57 249 56 -249 57 249 56 -249 926 4140 40 MP stroke
c9
56 0 57 0 56 0 57 0 56 249 57 0 56 -249 57 249 
56 -249 57 249 56 0 57 248 56 -248 57 -249 56 0 57 0 
56 0 57 249 56 0 57 0 56 -249 57 0 56 0 57 0 
56 0 57 0 56 0 57 0 56 249 57 -249 56 249 57 0 
56 -249 57 249 56 248 57 -248 56 0 57 -249 56 0 926 4140 40 MP stroke
c10
56 -496 57 0 56 496 57 0 56 -248 57 745 56 -248 57 -249 
56 0 57 0 56 0 57 0 56 0 57 -496 56 0 57 0 
56 496 57 -248 56 497 57 -745 56 -249 57 249 56 0 57 -249 
56 249 57 -249 56 249 57 0 56 248 57 -497 56 249 57 0 
56 -249 57 0 56 0 57 249 56 -249 57 249 56 -249 926 4140 40 MP stroke
c11
56 0 57 0 56 0 57 0 56 0 57 0 56 0 57 0 
56 249 57 496 56 0 57 -745 56 0 57 249 56 0 57 496 
56 0 57 -496 56 496 57 -248 56 0 57 248 56 -248 57 -248 
56 0 57 0 56 0 57 0 56 -249 57 0 56 0 57 0 
56 0 57 0 56 497 57 -248 56 0 57 -249 56 249 926 3891 40 MP stroke
gr

12 w
c11
0 sg
 529 3804 mt  -90 rotate
(Firing rate) s
90 rotate
1634 4513 mt 
(Time \(ms\)) s
gs 899 2650 2261 1491 MR c np
0 -1490 1238 4140 2 MP stroke
0 -1490 1803 4140 2 MP stroke
0 -1490 2594 4140 2 MP stroke
18 w
gr

18 w
1 sg
0 1490 2260 0 0 -1490 3996 2171 4 MP
PP
-2260 0 0 1490 2260 0 0 -1490 3996 2171 5 MP stroke
12 w
DO
SO
18 w
0 sg
3996 2171 mt 6256 2171 L
3996 2171 mt 3996  681 L
3996 2171 mt 3996 2148 L
3950 2366 mt 
(0) s
4335 2171 mt 4335 2148 L
4195 2366 mt 
(300) s
4900 2171 mt 4900 2148 L
4760 2366 mt 
(800) s
5691 2171 mt 5691 2148 L
5505 2366 mt 
(1500) s
3996 2171 mt 4018 2171 L
3868 2235 mt 
(0) s
3996 1550 mt 4018 1550 L
3775 1614 mt 
(50) s
3996  929 mt 4018  929 L
3681  993 mt 
(100) s
gs 3996 681 2261 1491 MR c np
12 w
c8
0 1 11 20 12 26 11 27 11 21 11 9 3996 2068 7 MP stroke
6 2 11 0 11 1 12 0 11 1 11 -1 11 -1 4 -2 
4105 2172 9 MP stroke
7 12 12 34 11 54 11 63 11 58 12 42 11 13 11 -16 
12 -36 11 -41 11 -34 12 -15 11 11 11 28 11 34 12 32 
11 19 11 -2 12 -16 11 -25 11 -29 12 -27 11 -19 11 -13 
11 -11 12 -9 11 -10 11 -12 12 -16 11 -19 11 -20 12 -18 
9 -12 4246 2172 34 MP stroke
8 12 11 18 11 12 12 9 11 9 11 9 12 5 11 1 
11 -5 12 -15 11 -19 11 -20 11 -16 4674 2172 14 MP stroke
8 1 11 0 11 1 12 3 11 6 11 9 11 15 12 17 
11 19 11 20 12 17 11 21 11 25 12 24 11 16 11 3 
11 -16 12 -37 11 -49 11 -49 12 -40 3 -6 4851 2172 23 MP stroke
3 1 11 0 11 0 12 0 11 0 11 0 12 1 11 0 
11 -1 11 0 2 -1 5124 2172 12 MP stroke
3 4 11 22 11 26 11 25 12 17 11 4 11 -10 12 -19 
11 -23 11 -21 12 -15 11 -7 10 -3 5251 2172 14 MP stroke
2 2 11 20 12 22 11 21 11 14 11 4 12 -5 11 -11 
11 -12 12 -8 11 0 11 9 12 15 11 17 11 15 11 9 
12 2 11 -2 11 -5 12 -8 11 -10 11 -11 12 -17 11 -19 
11 -20 11 -16 6 -6 5459 2172 28 MP stroke
9 19 12 30 11 26 11 17 12 0 11 -12 11 -17 12 -20 
11 -18 11 -11 11 -10 6 -4 5798 2172 13 MP stroke
6 6 11 17 11 22 11 22 12 19 11 13 11 6 12 3 
11 0 11 -1 12 1 11 2 11 5 11 4 12 1 11 -4 
11 -12 12 -24 11 -31 11 -31 9 -18 5953 2172 22 MP stroke
11 -2 2 -1 6231 2172 3 MP stroke
c9
10 15 11 29 12 38 11 43 11 44 12 47 11 56 11 59 
12 57 11 50 11 36 11 25 12 17 11 13 11 13 12 18 
11 32 11 44 12 41 11 25 11 -5 11 -51 12 -104 11 -131 
11 -129 12 -101 11 -46 11 13 12 50 11 65 11 57 11 27 
12 -15 11 -42 11 -55 12 -51 11 -33 11 -1 12 29 11 45 
11 49 11 40 12 21 11 2 11 -9 12 -17 11 -19 11 -20 
12 -17 11 -20 11 -22 11 -22 12 -23 11 -23 11 -29 12 -32 
11 -29 11 -19 12 -2 11 23 11 45 11 53 12 46 11 27 
11 -6 12 -33 11 -50 11 -53 12 -42 11 -21 11 -5 11 6 
12 14 11 19 11 22 12 28 11 36 11 40 12 40 11 34 
11 24 11 24 12 20 11 13 11 2 12 -12 11 -34 11 -53 
12 -60 11 -56 11 -42 11 -24 12 -17 11 -8 11 1 12 14 
11 30 11 62 12 83 4029 1949 100 MP stroke
11 82 11 63 11 22 3996 1782 4 MP stroke
2 4 11 32 12 42 11 43 11 37 12 23 11 5 11 -5 
11 -14 12 -18 11 -19 11 -19 12 -29 11 -32 11 -30 12 -19 
4 -1 5155 2172 18 MP stroke
11 -9 11 -16 12 -16 11 -11 11 -1 12 17 11 34 11 45 
11 45 12 37 11 21 11 3 12 -7 11 -12 11 -12 12 -4 
11 7 11 17 11 18 12 16 11 5 11 -10 12 -29 11 -39 
11 -41 12 -36 11 -23 11 -8 11 0 12 5 11 7 11 5 
12 1 11 -1 11 -2 12 1 11 6 11 14 11 24 12 31 
11 33 11 31 12 23 11 16 11 15 12 10 11 5 11 -3 
11 -14 12 -33 11 -41 11 -39 12 -28 11 -5 11 25 12 46 
11 51 11 43 11 19 12 -14 11 -40 11 -53 12 -54 11 -42 
11 -20 12 -1 11 11 11 14 11 9 12 -3 11 -18 11 -28 
12 -32 11 -30 4 -8 5404 2172 76 MP stroke
c10
11 -7 11 -27 12 -38 11 -39 11 -32 12 -21 11 -19 11 -17 
11 -11 12 -3 11 7 11 29 12 43 11 45 11 35 12 13 
11 -19 11 -45 11 -59 12 -58 11 -45 11 -20 12 -2 11 11 
11 16 12 15 11 8 11 3 11 1 12 1 11 -3 11 -6 
12 -13 11 -25 11 -29 12 -23 11 -9 11 14 11 45 12 64 
11 68 11 59 12 34 11 3 11 -18 12 -30 11 -31 11 -24 
11 -10 12 -4 11 -1 11 4 12 7 11 12 11 22 12 31 
11 32 11 26 11 13 12 -5 11 -23 11 -30 12 -29 11 -19 
11 1 12 22 11 33 11 35 11 27 12 10 11 -13 11 -28 
12 -35 11 -32 11 -19 12 -1 11 14 11 23 11 24 12 19 
11 9 11 -1 12 -7 11 -9 11 -9 12 -4 11 -2 11 0 
11 1 12 4 11 6 11 11 12 16 11 20 11 20 12 20 
11 18 11 15 11 14 5126 1717 100 MP stroke
12 14 11 13 11 14 12 18 11 28 11 28 12 17 11 -2 
11 -35 11 -80 12 -107 11 -109 11 -89 12 -43 11 10 11 46 
12 66 11 72 11 60 11 41 12 34 11 31 11 29 12 27 
11 29 11 34 12 36 11 33 11 21 11 5 12 -19 11 -41 
11 -52 12 -53 11 -45 11 -27 12 -15 11 -8 11 -6 11 -10 
12 -17 11 -39 11 -51 12 -49 11 -30 11 4 12 54 11 99 
11 125 11 131 12 117 11 89 11 80 12 74 11 60 11 40 
12 12 11 -20 11 -47 11 -67 12 -80 11 -86 11 -95 12 -122 
11 -134 11 -128 12 -103 11 -60 11 -11 11 20 12 37 11 33 
11 14 12 -13 11 -26 11 -34 12 -35 11 -29 11 -20 11 -19 
12 -16 11 -11 11 0 12 13 11 38 11 57 12 63 11 53 
11 28 11 -15 12 -61 11 -78 11 -66 12 -24 11 50 11 150 
12 210 11 215 11 168 4007 1304 100 MP stroke
11 65 3996 1239 2 MP stroke
c11
11 29 11 42 12 48 11 42 11 30 12 9 11 -6 11 -16 
11 -22 12 -23 11 -20 11 -22 12 -25 11 -25 11 -21 12 -15 
11 -7 11 -1 11 4 12 5 11 6 11 5 12 10 11 12 
11 10 12 3 11 -7 11 -22 11 -34 12 -38 11 -37 11 -27 
12 -14 11 -6 11 0 12 3 11 4 11 4 11 7 12 9 
11 10 11 7 12 1 11 -8 11 -16 12 -19 11 -15 11 -5 
11 11 12 24 11 34 11 36 12 33 11 24 11 19 12 16 
11 13 11 8 11 1 12 -7 11 -18 11 -23 12 -22 11 -16 
11 -5 12 4 11 10 11 13 11 11 12 8 11 4 11 4 
12 2 11 0 11 -3 12 -9 11 -17 11 -20 11 -19 12 -12 
11 0 11 12 12 20 11 24 11 25 12 22 11 20 11 21 
11 20 12 18 11 11 11 5 12 -2 11 -6 11 -11 12 -14 
11 -18 11 -25 11 -31 5126 1859 100 MP stroke
12 -33 11 -32 11 -26 12 -19 11 -18 11 -14 12 -10 11 -5 
11 3 11 10 12 16 11 20 11 21 12 21 11 24 11 30 
12 29 11 24 11 14 11 -2 12 -16 11 -24 11 -27 12 -25 
11 -18 11 -14 12 -12 11 -10 11 -8 11 -6 12 -4 11 -1 
11 1 12 3 11 5 11 8 12 14 11 16 11 17 11 14 
12 10 11 2 11 -1 12 -3 11 -2 11 3 12 10 11 15 
11 18 11 19 12 17 11 15 11 13 12 11 11 12 11 13 
12 14 11 21 11 26 11 26 12 21 11 11 11 -4 12 -16 
11 -24 11 -29 12 -29 11 -27 11 -29 11 -31 12 -30 11 -27 
11 -22 12 -13 11 -6 11 -2 12 -3 11 -6 11 -15 11 -22 
12 -27 11 -27 11 -20 12 -11 11 3 11 13 12 16 11 14 
11 7 11 -12 12 -36 11 -41 11 -27 12 6 11 61 11 143 
12 192 11 195 11 151 4007 1357 100 MP stroke
11 63 3996 1294 2 MP stroke
gr

12 w
c11
0 sg
4731 2544 mt 
(Time \(ms\)) s
gs 3996 681 2261 1491 MR c np
0 -1490 4335 2171 2 MP stroke
0 -1490 4900 2171 2 MP stroke
0 -1490 5691 2171 2 MP stroke
18 w
gr

18 w
6 w
1 sg
0 591 1094 0 0 -591 5102 1332 4 MP
PP
-1094 0 0 591 1094 0 0 -591 5102 1332 5 MP stroke
4 w
DO
SO
6 w
0 sg
5102 1332 mt 6196 1332 L
5102  741 mt 6196  741 L
5102 1332 mt 5102  741 L
6196 1332 mt 6196  741 L
5102 1332 mt 6196 1332 L
5102 1332 mt 5102  741 L
5102 1332 mt 6196 1332 L
5102  741 mt 6196  741 L
5102 1332 mt 5102  741 L
6196 1332 mt 6196  741 L
%%IncludeResource: font Helvetica-Bold
/Helvetica-Bold /ISOLatin1Encoding 120 FMSR

5435  867 mt 
(20% correct) s
5435 1009 mt 
(40% correct) s
5435 1151 mt 
(100% \(early\)) s
5435 1293 mt 
(100% \(late\)) s
gs 5102 741 1095 592 MR c np
12 w
c8
200 0 5168 825 2 MP stroke
c9
200 0 5168 967 2 MP stroke
c10
200 0 5168 1109 2 MP stroke
c11
200 0 5168 1252 2 MP stroke
6 w
gr

c11
18 w
1 sg
0 1490 2260 0 0 -1490 3996 4140 4 MP
PP
-2260 0 0 1490 2260 0 0 -1490 3996 4140 5 MP stroke
12 w
DO
SO
18 w
0 sg
3996 4140 mt 6256 4140 L
3996 4140 mt 3996 2650 L
3996 4140 mt 3996 4117 L
%%IncludeResource: font Helvetica-Bold
/Helvetica-Bold /ISOLatin1Encoding 168 FMSR

3950 4335 mt 
(0) s
4335 4140 mt 4335 4117 L
4195 4335 mt 
(300) s
4900 4140 mt 4900 4117 L
4760 4335 mt 
(800) s
5691 4140 mt 5691 4117 L
5505 4335 mt 
(1500) s
3996 4140 mt 4018 4140 L
3868 4204 mt 
(0) s
3996 3519 mt 4018 3519 L
3775 3583 mt 
(50) s
3996 2898 mt 4018 2898 L
3681 2962 mt 
(100) s
gs 3996 2650 2261 1491 MR c np
12 w
c8
56 0 57 0 56 0 57 249 56 -249 57 497 56 -497 57 0 
56 249 57 -249 56 0 57 249 56 0 57 0 56 -249 57 0 
56 0 57 249 56 -249 57 0 56 0 57 0 56 249 57 248 
56 -497 57 0 56 249 57 -249 56 0 57 249 56 496 57 -248 
56 -248 57 248 56 -497 57 0 56 0 57 0 56 0 4024 4140 40 MP stroke
c9
56 0 57 -497 56 0 57 249 56 -249 57 497 56 -248 57 -249 
56 249 57 -249 56 249 57 -249 56 497 57 -248 56 -249 57 0 
56 0 57 0 56 0 57 0 56 0 57 249 56 0 57 993 
56 -745 57 248 56 -248 57 0 56 -248 57 0 56 -249 57 249 
56 -249 57 0 56 0 57 497 56 -248 57 -249 56 249 4024 3891 40 MP stroke
c10
56 248 57 0 56 -497 57 497 56 -497 57 497 56 -497 57 0 
56 0 57 249 56 0 57 -249 56 497 57 -248 56 248 57 0 
56 -248 57 248 56 0 57 -248 56 496 57 0 56 -745 57 249 
56 0 57 496 56 -248 57 248 56 -745 57 745 56 249 57 0 
56 -497 57 -248 56 -249 57 0 56 0 57 249 56 248 4024 3643 40 MP stroke
c11
56 745 57 -745 56 497 57 0 56 0 57 0 56 -497 57 0 
56 0 57 0 56 0 57 249 56 248 57 -497 56 249 57 496 
56 -745 57 249 56 248 57 -248 56 0 57 -249 56 249 57 0 
56 0 57 -249 56 249 57 -249 56 0 57 0 56 249 57 -249 
56 745 57 -248 56 -497 57 249 56 -249 57 249 56 248 4024 3643 40 MP stroke
gr

12 w
c11
0 sg
4731 4513 mt 
(Time \(ms\)) s
gs 3996 2650 2261 1491 MR c np
0 -1490 4335 4140 2 MP stroke
0 -1490 4900 4140 2 MP stroke
0 -1490 5691 4140 2 MP stroke
18 w
gr

18 w

end

eplot
%%EndObject

epage
end

showpage

%%Trailer
%%BoundingBox:    48   394   543   721
%%Pages: 001
%%EOF
